Normal,petya,   opa!!!
Normal,petya,   opa!!!
Normal,petya,   opa!!!
Normal,petya,   opa!!!
Normal,petya,   opa!!!
Normal,petya,   opa!!!
Normal,petya,   opa!!!
Normal,petya,   opa!!!
Normal,petya,   opa!!!
Normal,petya,   opa!!!
Normal,petya,   opa!!!
Normal,petya,   opa!!!
Normal,petya,   opa!!!
Normal,petya,   opa!!!
Normal,petya,   opa!!!
Normal,petya,   opa!!!
Normal,petya,   opa!!!
Normal,petya,   opa!!!
Normal,petya,   opa!!!
Normal,petya,   opa!!!
Normal,petya,   opa!!!
Normal,petya,   opa!!!
Normal,petya,   opa!!!
Normal,petya,   opa!!!
Normal,petya,   opa!!!
Normal,petya,   opa!!!
Normal,petya,   opa!!!
Normal,petya,   opa!!!
Normal,petya,   opa!!!
Normal,petya,   opa!!!
Normal,petya,   opa!!!
Normal,petya,   opa!!!
Normal,petya,   opa!!!
Normal,petya,   opa!!!
Normal,petya,   opa!!!
Normal,petya,   opa!!!
Normal,petya,   opa!!!
Normal,petya,   opa!!!
Normal,petya,   opa!!!
Normal,petya,   opa!!!
Normal,petya,   opa!!!
Normal,petya,   opa!!!
Normal,petya,   opa!!!
Normal,petya,   opa!!!
Normal,petya,   opa!!!
Normal,petya,   opa!!!
Normal,petya,   opa!!!
Normal,petya,   opa!!!
Normal,petya,   opa!!!
Normal,petya,   opa!!!
Normal,petya,   opa!!!
Normal,petya,   opa!!!
Normal,petya,   opa!!!
Normal,petya,   opa!!!
Normal,petya,   opa!!!
Normal,petya,   opa!!!
Normal,petya,   opa!!!
Normal,petya,   opa!!!
Normal,petya,   opa!!!
Normal,petya,   opa!!!
Normal,petya,   opa!!!
Normal,petya,   opa!!!
Normal,petya,   opa!!!
Normal,petya,   opa!!!
Normal,petya,   opa!!!
Normal,petya,   opa!!!
Normal,petya,   opa!!!
Normal,petya,   opa!!!
Normal,petya,   opa!!!
Normal,petya,   opa!!!
Normal,petya,   opa!!!
Normal,petya,   opa!!!
Normal,petya,   opa!!!
Normal,petya,   opa!!!
Normal,petya,   opa!!!
Normal,petya,   opa!!!
Normal,petya,   opa!!!
Normal,petya,   opa!!!
Normal,petya,   opa!!!
Normal,petya,   opa!!!
Normal,petya,   opa!!!
Normal,petya,   opa!!!
Normal,petya,   opa!!!
Normal,petya,   opa!!!
Normal,petya,   opa!!!
Normal,petya,   opa!!!
Normal,petya,   opa!!!
Normal,petya,   opa!!!
Normal,petya,   opa!!!
Normal,petya,   opa!!!
Normal,petya,   opa!!!
Normal,petya,   opa!!!
Normal,petya,   opa!!!
Normal,petya,   opa!!!
Normal,petya,   opa!!!
Normal,petya,   opa!!!
Normal,petya,   opa!!!
Normal,petya,   opa!!!
Normal,petya,   opa!!!
Normal,petya,   opa!!!
Normal,petya,   opa!!!
Normal,petya,   opa!!!
Normal,petya,   opa!!!
Normal,petya,   opa!!!
Normal,petya,   opa!!!
Normal,petya,   opa!!!
Normal,petya,   opa!!!
Normal,petya,   opa!!!
Normal,petya,   opa!!!
Normal,petya,   opa!!!
Normal,petya,   opa!!!
Normal,petya,   opa!!!
Normal,petya,   opa!!!
Normal,petya,   opa!!!
Normal,petya,   opa!!!
Normal,petya,   opa!!!
Normal,petya,   opa!!!
Normal,petya,   opa!!!
Normal,petya,   opa!!!
Normal,petya,   opa!!!
Normal,petya,   opa!!!
Normal,petya,   opa!!!
Normal,petya,   opa!!!
High,vova,privvvvki
Normal,petya,   opa!!!
High,vova,privvvvki
Normal,petya,   opa!!!
High,vova,privvvvki
Normal,petya,   opa!!!
High,vova,privvvvki
Normal,petya,   opa!!!
High,vova,privvvvki
Normal,petya,   opa!!!
High,vova,privvvvki
Normal,petya,   opa!!!
High,vova,privvvvki
Normal,petya,   opa!!!
High,vova,privvvvki
Normal,petya,   opa!!!
High,vova,privvvvki
Normal,petya,   opa!!!
High,vova,privvvvki
Normal,petya,   opa!!!
High,vova,privvvvki
Normal,petya,   opa!!!
High,vova,privvvvki
Normal,petya,   opa!!!
High,vova,privvvvki
Normal,petya,   opa!!!
High,vova,privvvvki
Normal,petya,   opa!!!
High,vova,privvvvki
Normal,petya,   opa!!!
High,vova,privvvvki
Normal,petya,   opa!!!
High,vova,privvvvki
Normal,petya,   opa!!!
Normal,petya,   opa!!!
High,vova,privvvvki
Normal,petya,   opa!!!
High,vova,privvvvki
Normal,petya,   opa!!!
High,vova,privvvvki
Normal,petya,   opa!!!
High,vova,privvvvki
Normal,petya,   opa!!!
High,vova,privvvvki
Normal,petya,   opa!!!
High,vova,privvvvki
Normal,petya,   opa!!!
High,vova,privvvvki
Normal,petya,   opa!!!
High,vova,privvvvki
Normal,petya,   opa!!!
High,vova,privvvvki
Normal,petya,   opa!!!
High,vova,privvvvki
Normal,petya,   opa!!!
High,vova,privvvvki
Normal,petya,   opa!!!
High,vova,privvvvki
Normal,petya,   opa!!!
High,vova,privvvvki
Normal,petya,   opa!!!
High,vova,privvvvki
Normal,petya,   opa!!!
High,vova,privvvvki
Normal,petya,   opa!!!
High,vova,privvvvki
Normal,petya,   opa!!!
High,vova,privvvvki
Normal,petya,   opa!!!
High,vova,privvvvki
Normal,petya,   opa!!!
High,vova,privvvvki
Normal,petya,   opa!!!
High,vova,privvvvki
Normal,petya,   opa!!!
High,vova,privvvvki
Normal,petya,   opa!!!
High,vova,privvvvki
Normal,petya,   opa!!!
High,vova,privvvvki
High,vova,privvvvki
Normal,petya,   opa!!!
High,vova,privvvvki
Normal,petya,   opa!!!
Normal,petya,   opa!!!
High,vova,privvvvki
High,vova,privvvvki
Normal,petya,   opa!!!
Normal,petya,   opa!!!
High,vova,privvvvki
Normal,petya,   opa!!!
High,vova,privvvvki
High,vova,privvvvki
Normal,petya,   opa!!!
Normal,petya,   opa!!!
High,vova,privvvvki
High,vova,privvvvki
Normal,petya,   opa!!!
High,vova,privvvvki
Normal,petya,   opa!!!
High,vova,privvvvki
Normal,petya,   opa!!!
High,vova,privvvvki
Normal,petya,   opa!!!
High,vova,privvvvki
Normal,petya,   opa!!!
High,vova,privvvvki
Normal,petya,   opa!!!
High,vova,privvvvki
Normal,petya,   opa!!!
High,vova,privvvvki
Normal,petya,   opa!!!
High,vova,privvvvki
Normal,petya,   opa!!!
High,vova,privvvvki
Normal,petya,   opa!!!
High,vova,privvvvki
Normal,petya,   opa!!!
High,vova,privvvvki
Normal,petya,   opa!!!
High,vova,privvvvki
Normal,petya,   opa!!!
High,vova,privvvvki
Normal,petya,   opa!!!
High,vova,privvvvki
Normal,petya,   opa!!!
High,vova,privvvvki
Normal,petya,   opa!!!
High,vova,privvvvki
Normal,petya,   opa!!!
High,vova,privvvvki
Normal,petya,   opa!!!
High,vova,privvvvki
Normal,petya,   opa!!!
High,vova,privvvvki
Normal,petya,   opa!!!
High,vova,privvvvki
Normal,petya,   opa!!!
High,vova,privvvvki
Normal,petya,   opa!!!
High,vova,privvvvki
Normal,petya,   opa!!!
High,vova,privvvvki
Normal,petya,   opa!!!
High,vova,privvvvki
Normal,petya,   opa!!!
High,vova,privvvvki
Normal,petya,   opa!!!
High,vova,privvvvki
Normal,petya,   opa!!!
High,vova,privvvvki
Normal,petya,   opa!!!
High,vova,privvvvki
Normal,petya,   opa!!!
High,vova,privvvvki
Normal,petya,   opa!!!
High,vova,privvvvki
Normal,petya,   opa!!!
High,vova,privvvvki
Normal,petya,   opa!!!
High,vova,privvvvki
Normal,petya,   opa!!!
High,vova,privvvvki
Normal,petya,   opa!!!
High,vova,privvvvki
Normal,petya,   opa!!!
High,vova,privvvvki
Normal,petya,   opa!!!
High,vova,privvvvki
Normal,petya,   opa!!!
High,vova,privvvvki
Normal,petya,   opa!!!
High,vova,privvvvki
Normal,petya,   opa!!!
High,vova,privvvvki
Normal,petya,   opa!!!
High,vova,privvvvki
Normal,petya,   opa!!!
High,vova,privvvvki
Normal,petya,   opa!!!
High,vova,privvvvki
Normal,petya,   opa!!!
High,vova,privvvvki
Normal,petya,   opa!!!
High,vova,privvvvki
Normal,petya,   opa!!!
High,vova,privvvvki
Normal,petya,   opa!!!
High,vova,privvvvki
Normal,petya,   opa!!!
High,vova,privvvvki
Normal,petya,   opa!!!
High,vova,privvvvki
Normal,petya,   opa!!!
High,vova,privvvvki
Normal,petya,   opa!!!
High,vova,privvvvki
Normal,petya,   opa!!!
High,vova,privvvvki
Normal,petya,   opa!!!
High,vova,privvvvki
Normal,petya,   opa!!!
High,vova,privvvvki
Normal,petya,   opa!!!
High,vova,privvvvki
Normal,petya,   opa!!!
High,vova,privvvvki
Normal,petya,   opa!!!
High,vova,privvvvki
Normal,petya,   opa!!!
High,vova,privvvvki
Normal,petya,   opa!!!
High,vova,privvvvki
Normal,petya,   opa!!!
High,vova,privvvvki
Normal,petya,   opa!!!
High,vova,privvvvki
Normal,petya,   opa!!!
High,vova,privvvvki
Normal,petya,   opa!!!
High,vova,privvvvki
Normal,petya,   opa!!!
High,vova,privvvvki
Normal,petya,   opa!!!
High,vova,privvvvki
Normal,petya,   opa!!!
High,vova,privvvvki
Normal,petya,   opa!!!
High,vova,privvvvki
Normal,petya,   opa!!!
High,vova,privvvvki
Normal,petya,   opa!!!
High,vova,privvvvki
Normal,petya,   opa!!!
High,vova,privvvvki
Normal,petya,   opa!!!
High,vova,privvvvki
Normal,petya,   opa!!!
High,vova,privvvvki
Normal,petya,   opa!!!
High,vova,privvvvki
Normal,petya,   opa!!!
High,vova,privvvvki
Normal,petya,   opa!!!
High,vova,privvvvki
Normal,petya,   opa!!!
High,vova,privvvvki
Normal,petya,   opa!!!
High,vova,privvvvki
Normal,petya,   opa!!!
High,vova,privvvvki
Normal,petya,   opa!!!
High,vova,privvvvki
Normal,petya,   opa!!!
High,vova,privvvvki
Normal,petya,   opa!!!
High,vova,privvvvki
Normal,petya,   opa!!!
High,vova,privvvvki
Normal,petya,   opa!!!
High,vova,privvvvki
Normal,petya,   opa!!!
High,vova,privvvvki
Normal,petya,   opa!!!
High,vova,privvvvki
Normal,petya,   opa!!!
High,vova,privvvvki
Normal,petya,   opa!!!
High,vova,privvvvki
Normal,petya,   opa!!!
High,vova,privvvvki
Normal,petya,   opa!!!
High,vova,privvvvki
Normal,petya,   opa!!!
High,vova,privvvvki
Normal,petya,   opa!!!
High,vova,privvvvki
Normal,petya,   opa!!!
High,vova,privvvvki
Normal,petya,   opa!!!
High,vova,privvvvki
Normal,petya,   opa!!!
High,vova,privvvvki
Normal,petya,   opa!!!
High,vova,privvvvki
Normal,petya,   opa!!!
High,vova,privvvvki
Normal,petya,   opa!!!
High,vova,privvvvki
Normal,petya,   opa!!!
High,vova,privvvvki
Normal,petya,   opa!!!
High,vova,privvvvki
Normal,petya,   opa!!!
High,vova,privvvvki
Normal,petya,   opa!!!
Normal,petya,   opa!!!
High,vova,privvvvki
Normal,petya,   opa!!!
High,vova,privvvvki
Normal,petya,   opa!!!
High,vova,privvvvki
High,vova,privvvvki
Normal,petya,   opa!!!
High,vova,privvvvki
Normal,petya,   opa!!!
High,vova,privvvvki
Normal,petya,   opa!!!
High,vova,privvvvki
Normal,petya,   opa!!!
High,vova,privvvvki
Normal,petya,   opa!!!
High,vova,privvvvki
Normal,petya,   opa!!!
High,vova,privvvvki
Normal,petya,   opa!!!
High,vova,privvvvki
Normal,petya,   opa!!!
High,vova,privvvvki
Normal,petya,   opa!!!
High,vova,privvvvki
Normal,petya,   opa!!!
High,vova,privvvvki
Normal,petya,   opa!!!
Normal,petya,   opa!!!
High,vova,privvvvki
Normal,petya,   opa!!!
High,vova,privvvvki
High,vova,privvvvki
Normal,petya,   opa!!!
High,vova,privvvvki
Normal,petya,   opa!!!
Normal,petya,   opa!!!
High,vova,privvvvki
High,vova,privvvvki
Normal,petya,   opa!!!
High,vova,privvvvki
Normal,petya,   opa!!!
High,vova,privvvvki
Normal,petya,   opa!!!
High,vova,privvvvki
Normal,petya,   opa!!!
High,vova,privvvvki
Normal,petya,   opa!!!
High,vova,privvvvki
Normal,petya,   opa!!!
High,vova,privvvvki
Normal,petya,   opa!!!
High,vova,privvvvki
Normal,petya,   opa!!!
High,vova,privvvvki
Normal,petya,   opa!!!
High,vova,privvvvki
Normal,petya,   opa!!!
High,vova,privvvvki
Normal,petya,   opa!!!
High,vova,privvvvki
Normal,petya,   opa!!!
High,vova,privvvvki
Normal,petya,   opa!!!
High,vova,privvvvki
Normal,petya,   opa!!!
High,vova,privvvvki
Normal,petya,   opa!!!
High,vova,privvvvki
Normal,petya,   opa!!!
High,vova,privvvvki
Normal,petya,   opa!!!
High,vova,privvvvki
Normal,petya,   opa!!!
High,vova,privvvvki
Normal,petya,   opa!!!
High,vova,privvvvki
Normal,petya,   opa!!!
High,vova,privvvvki
Normal,petya,   opa!!!
High,vova,privvvvki
Normal,petya,   opa!!!
High,vova,privvvvki
Normal,petya,   opa!!!
High,vova,privvvvki
Normal,petya,   opa!!!
High,vova,privvvvki
Normal,petya,   opa!!!
High,vova,privvvvki
Normal,petya,   opa!!!
High,vova,privvvvki
Normal,petya,   opa!!!
High,vova,privvvvki
Normal,petya,   opa!!!
Normal,petya,   opa!!!
High,vova,privvvvki
High,vova,privvvvki
Normal,petya,   opa!!!
Normal,petya,   opa!!!
High,vova,privvvvki
High,vova,privvvvki
Normal,petya,   opa!!!
High,vova,privvvvki
Normal,petya,   opa!!!
Normal,petya,   opa!!!
High,vova,privvvvki
High,vova,privvvvki
Normal,petya,   opa!!!
Normal,petya,   opa!!!
High,vova,privvvvki
Normal,petya,   opa!!!
High,vova,privvvvki
Normal,petya,   opa!!!
High,vova,privvvvki
Normal,petya,   opa!!!
High,vova,privvvvki
Normal,petya,   opa!!!
High,vova,privvvvki
Normal,petya,   opa!!!
High,vova,privvvvki
Normal,petya,   opa!!!
High,vova,privvvvki
Normal,petya,   opa!!!
High,vova,privvvvki
Normal,petya,   opa!!!
High,vova,privvvvki
Normal,petya,   opa!!!
High,vova,privvvvki
Normal,petya,   opa!!!
High,vova,privvvvki
Normal,petya,   opa!!!
High,vova,privvvvki
Normal,petya,   opa!!!
High,vova,privvvvki
Normal,petya,   opa!!!
High,vova,privvvvki
Normal,petya,   opa!!!
High,vova,privvvvki
Normal,petya,   opa!!!
High,vova,privvvvki
Normal,petya,   opa!!!
High,vova,privvvvki
Normal,petya,   opa!!!
High,vova,privvvvki
Normal,petya,   opa!!!
High,vova,privvvvki
Normal,petya,   opa!!!
High,vova,privvvvki
Normal,petya,   opa!!!
High,vova,privvvvki
Normal,petya,   opa!!!
High,vova,privvvvki
Normal,petya,   opa!!!
High,vova,privvvvki
Normal,petya,   opa!!!
High,vova,privvvvki
Normal,petya,   opa!!!
High,vova,privvvvki
Normal,petya,   opa!!!
High,vova,privvvvki
Normal,petya,   opa!!!
High,vova,privvvvki
Normal,petya,   opa!!!
High,vova,privvvvki
Normal,petya,   opa!!!
High,vova,privvvvki
Normal,petya,   opa!!!
High,vova,privvvvki
Normal,petya,   opa!!!
High,vova,privvvvki
Normal,petya,   opa!!!
High,vova,privvvvki
Normal,petya,   opa!!!
High,vova,privvvvki
Normal,petya,   opa!!!
High,vova,privvvvki
Normal,petya,   opa!!!
High,vova,privvvvki
Normal,petya,   opa!!!
High,vova,privvvvki
Normal,petya,   opa!!!
High,vova,privvvvki
Normal,petya,   opa!!!
High,vova,privvvvki
Normal,petya,   opa!!!
High,vova,privvvvki
Normal,petya,   opa!!!
High,vova,privvvvki
Normal,petya,   opa!!!
High,vova,privvvvki
Normal,petya,   opa!!!
High,vova,privvvvki
Normal,petya,   opa!!!
High,vova,privvvvki
Normal,petya,   opa!!!
High,vova,privvvvki
Normal,petya,   opa!!!
High,vova,privvvvki
Normal,petya,   opa!!!
High,vova,privvvvki
Normal,petya,   opa!!!
High,vova,privvvvki
Normal,petya,   opa!!!
High,vova,privvvvki
Normal,petya,   opa!!!
High,vova,privvvvki
Normal,petya,   opa!!!
High,vova,privvvvki
Normal,petya,   opa!!!
High,vova,privvvvki
Normal,petya,   opa!!!
High,vova,privvvvki
Normal,petya,   opa!!!
High,vova,privvvvki
Normal,petya,   opa!!!
High,vova,privvvvki
Normal,petya,   opa!!!
High,vova,privvvvki
Normal,petya,   opa!!!
High,vova,privvvvki
Normal,petya,   opa!!!
High,vova,privvvvki
Normal,petya,   opa!!!
High,vova,privvvvki
Normal,petya,   opa!!!
High,vova,privvvvki
Normal,petya,   opa!!!
High,vova,privvvvki
Normal,petya,   opa!!!
High,vova,privvvvki
Normal,petya,   opa!!!
High,vova,privvvvki
Normal,petya,   opa!!!
High,vova,privvvvki
Normal,petya,   opa!!!
High,vova,privvvvki
Normal,petya,   opa!!!
High,vova,privvvvki
Normal,petya,   opa!!!
High,vova,privvvvki
Normal,petya,   opa!!!
High,vova,privvvvki
Normal,petya,   opa!!!
High,vova,privvvvki
Normal,petya,   opa!!!
High,vova,privvvvki
Normal,petya,   opa!!!
High,vova,privvvvki
Normal,petya,   opa!!!
High,vova,privvvvki
Normal,petya,   opa!!!
High,vova,privvvvki
High,vova,privvvvki
Normal,petya,   opa!!!
Normal,petya,   opa!!!
High,vova,privvvvki
High,vova,privvvvki
Normal,petya,   opa!!!
Normal,petya,   opa!!!
High,vova,privvvvki
High,vova,privvvvki
Normal,petya,   opa!!!
High,vova,privvvvki
Normal,petya,   opa!!!
Normal,petya,   opa!!!
High,vova,privvvvki
High,vova,privvvvki
Normal,petya,   opa!!!
High,vova,privvvvki
Normal,petya,   opa!!!
High,vova,privvvvki
Normal,petya,   opa!!!
High,vova,privvvvki
Normal,petya,   opa!!!
High,vova,privvvvki
Normal,petya,   opa!!!
High,vova,privvvvki
Normal,petya,   opa!!!
Normal,petya,   opa!!!
High,vova,privvvvki
High,vova,privvvvki
Normal,petya,   opa!!!
High,vova,privvvvki
Normal,petya,   opa!!!
Normal,petya,   opa!!!
High,vova,privvvvki
Normal,petya,   opa!!!
High,vova,privvvvki
Normal,petya,   opa!!!
High,vova,privvvvki
Normal,petya,   opa!!!
High,vova,privvvvki
Normal,petya,   opa!!!
High,vova,privvvvki
Normal,petya,   opa!!!
High,vova,privvvvki
Normal,petya,   opa!!!
High,vova,privvvvki
Normal,petya,   opa!!!
High,vova,privvvvki
Normal,petya,   opa!!!
High,vova,privvvvki
Normal,petya,   opa!!!
High,vova,privvvvki
Normal,petya,   opa!!!
High,vova,privvvvki
Normal,petya,   opa!!!
High,vova,privvvvki
Normal,petya,   opa!!!
High,vova,privvvvki
Normal,petya,   opa!!!
High,vova,privvvvki
Normal,petya,   opa!!!
High,vova,privvvvki
Normal,petya,   opa!!!
High,vova,privvvvki
Normal,petya,   opa!!!
High,vova,privvvvki
Normal,petya,   opa!!!
High,vova,privvvvki
Normal,petya,   opa!!!
High,vova,privvvvki
Normal,petya,   opa!!!
High,vova,privvvvki
Normal,petya,   opa!!!
High,vova,privvvvki
Normal,petya,   opa!!!
High,vova,privvvvki
Normal,petya,   opa!!!
High,vova,privvvvki
Normal,petya,   opa!!!
High,vova,privvvvki
Normal,petya,   opa!!!
High,vova,privvvvki
Normal,petya,   opa!!!
High,vova,privvvvki
Normal,petya,   opa!!!
High,vova,privvvvki
Normal,petya,   opa!!!
High,vova,privvvvki
Normal,petya,   opa!!!
High,vova,privvvvki
Normal,petya,   opa!!!
High,vova,privvvvki
Normal,petya,   opa!!!
High,vova,privvvvki
Normal,petya,   opa!!!
High,vova,privvvvki
Normal,petya,   opa!!!
High,vova,privvvvki
Normal,petya,   opa!!!
High,vova,privvvvki
Normal,petya,   opa!!!
High,vova,privvvvki
Normal,petya,   opa!!!
High,vova,privvvvki
Normal,petya,   opa!!!
High,vova,privvvvki
Normal,petya,   opa!!!
High,vova,privvvvki
Normal,petya,   opa!!!
High,vova,privvvvki
Normal,petya,   opa!!!
High,vova,privvvvki
Normal,petya,   opa!!!
High,vova,privvvvki
Normal,petya,   opa!!!
High,vova,privvvvki
Normal,petya,   opa!!!
High,vova,privvvvki
Normal,petya,   opa!!!
High,vova,privvvvki
Normal,petya,   opa!!!
High,vova,privvvvki
Normal,petya,   opa!!!
High,vova,privvvvki
Normal,petya,   opa!!!
High,vova,privvvvki
Normal,petya,   opa!!!
High,vova,privvvvki
Normal,petya,   opa!!!
High,vova,privvvvki
Normal,petya,   opa!!!
High,vova,privvvvki
Normal,petya,   opa!!!
High,vova,privvvvki
Normal,petya,   opa!!!
High,vova,privvvvki
Normal,petya,   opa!!!
High,vova,privvvvki
Normal,petya,   opa!!!
High,vova,privvvvki
Normal,petya,   opa!!!
High,vova,privvvvki
Normal,petya,   opa!!!
High,vova,privvvvki
Normal,petya,   opa!!!
High,vova,privvvvki
Normal,petya,   opa!!!
High,vova,privvvvki
Normal,petya,   opa!!!
High,vova,privvvvki
Normal,petya,   opa!!!
High,vova,privvvvki
Normal,petya,   opa!!!
High,vova,privvvvki
Normal,petya,   opa!!!
High,vova,privvvvki
Normal,petya,   opa!!!
High,vova,privvvvki
Normal,petya,   opa!!!
High,vova,privvvvki
Normal,petya,   opa!!!
High,vova,privvvvki
Normal,petya,   opa!!!
High,vova,privvvvki
Normal,petya,   opa!!!
High,vova,privvvvki
Normal,petya,   opa!!!
High,vova,privvvvki
Normal,petya,   opa!!!
High,vova,privvvvki
Normal,petya,   opa!!!
High,vova,privvvvki
Normal,petya,   opa!!!
High,vova,privvvvki
Normal,petya,   opa!!!
High,vova,privvvvki
Normal,petya,   opa!!!
High,vova,privvvvki
Normal,petya,   opa!!!
High,vova,privvvvki
Normal,petya,   opa!!!
High,vova,privvvvki
Normal,petya,   opa!!!
High,vova,privvvvki
Normal,petya,   opa!!!
High,vova,privvvvki
Normal,petya,   opa!!!
High,vova,privvvvki
Normal,petya,   opa!!!
High,vova,privvvvki
Normal,petya,   opa!!!
High,vova,privvvvki
Normal,petya,   opa!!!
High,vova,privvvvki
Normal,petya,   opa!!!
High,vova,privvvvki
Normal,petya,   opa!!!
High,vova,privvvvki
Normal,petya,   opa!!!
High,vova,privvvvki
Normal,petya,   opa!!!
High,vova,privvvvki
Normal,petya,   opa!!!
High,vova,privvvvki
Normal,petya,   opa!!!
High,vova,privvvvki
Normal,petya,   opa!!!
High,vova,privvvvki
Normal,petya,   opa!!!
High,vova,privvvvki
Normal,petya,   opa!!!
High,vova,privvvvki
Normal,petya,   opa!!!
High,vova,privvvvki
Normal,petya,   opa!!!
High,vova,privvvvki
Normal,petya,   opa!!!
High,vova,privvvvki
Normal,petya,   opa!!!
High,vova,privvvvki
Normal,petya,   opa!!!
High,vova,privvvvki
Normal,petya,   opa!!!
High,vova,privvvvki
Normal,petya,   opa!!!
High,vova,privvvvki
Normal,petya,   opa!!!
High,vova,privvvvki
Normal,petya,   opa!!!
High,vova,privvvvki
Normal,petya,   opa!!!
High,vova,privvvvki
Normal,petya,   opa!!!
High,vova,privvvvki
Normal,petya,   opa!!!
High,vova,privvvvki
Normal,petya,   opa!!!
High,vova,privvvvki
Normal,petya,   opa!!!
High,vova,privvvvki
Normal,petya,   opa!!!
High,vova,privvvvki
Normal,petya,   opa!!!
High,vova,privvvvki
Normal,petya,   opa!!!
High,vova,privvvvki
Normal,petya,   opa!!!
High,vova,privvvvki
Normal,petya,   opa!!!
High,vova,privvvvki
Normal,petya,   opa!!!
High,vova,privvvvki
Normal,petya,   opa!!!
High,vova,privvvvki
Normal,petya,   opa!!!
High,vova,privvvvki
Normal,petya,   opa!!!
High,vova,privvvvki
Normal,petya,   opa!!!
High,vova,privvvvki
Normal,petya,   opa!!!
High,vova,privvvvki
Normal,petya,   opa!!!
High,vova,privvvvki
Normal,petya,   opa!!!
High,vova,privvvvki
Normal,petya,   opa!!!
High,vova,privvvvki
Normal,petya,   opa!!!
High,vova,privvvvki
Normal,petya,   opa!!!
High,vova,privvvvki
Normal,petya,   opa!!!
High,vova,privvvvki
Normal,petya,   opa!!!
High,vova,privvvvki
Normal,petya,   opa!!!
High,vova,privvvvki
Normal,petya,   opa!!!
High,vova,privvvvki
Normal,petya,   opa!!!
High,vova,privvvvki
Normal,petya,   opa!!!
High,vova,privvvvki
Normal,petya,   opa!!!
High,vova,privvvvki
Normal,petya,   opa!!!
High,vova,privvvvki
Normal,petya,   opa!!!
High,vova,privvvvki
Normal,petya,   opa!!!
High,vova,privvvvki
Normal,petya,   opa!!!
High,vova,privvvvki
Normal,petya,   opa!!!
High,vova,privvvvki
Normal,petya,   opa!!!
High,vova,privvvvki
Normal,petya,   opa!!!
High,vova,privvvvki
Normal,petya,   opa!!!
High,vova,privvvvki
Normal,petya,   opa!!!
High,vova,privvvvki
Normal,petya,   opa!!!
High,vova,privvvvki
Normal,petya,   opa!!!
High,vova,privvvvki
Normal,petya,   opa!!!
High,vova,privvvvki
Normal,petya,   opa!!!
High,vova,privvvvki
Normal,petya,   opa!!!
High,vova,privvvvki
Normal,petya,   opa!!!
High,vova,privvvvki
Normal,petya,   opa!!!
High,vova,privvvvki
Normal,petya,   opa!!!
High,vova,privvvvki
Normal,petya,   opa!!!
High,vova,privvvvki
Normal,petya,   opa!!!
High,vova,privvvvki
Normal,petya,   opa!!!
High,vova,privvvvki
Normal,petya,   opa!!!
High,vova,privvvvki
Normal,petya,   opa!!!
High,vova,privvvvki
Normal,petya,   opa!!!
High,vova,privvvvki
Normal,petya,   opa!!!
High,vova,privvvvki
Normal,petya,   opa!!!
High,vova,privvvvki
Normal,petya,   opa!!!
High,vova,privvvvki
Normal,petya,   opa!!!
High,vova,privvvvki
Normal,petya,   opa!!!
High,vova,privvvvki
Normal,petya,   opa!!!
High,vova,privvvvki
Normal,petya,   opa!!!
High,vova,privvvvki
Normal,petya,   opa!!!
High,vova,privvvvki
Normal,petya,   opa!!!
High,vova,privvvvki
Normal,petya,   opa!!!
High,vova,privvvvki
Normal,petya,   opa!!!
High,vova,privvvvki
Normal,petya,   opa!!!
High,vova,privvvvki
Normal,petya,   opa!!!
High,vova,privvvvki
Normal,petya,   opa!!!
High,vova,privvvvki
Normal,petya,   opa!!!
High,vova,privvvvki
Normal,petya,   opa!!!
High,vova,privvvvki
Normal,petya,   opa!!!
High,vova,privvvvki
Normal,petya,   opa!!!
High,vova,privvvvki
Normal,petya,   opa!!!
High,vova,privvvvki
Normal,petya,   opa!!!
High,vova,privvvvki
Normal,petya,   opa!!!
High,vova,privvvvki
Normal,petya,   opa!!!
High,vova,privvvvki
Normal,petya,   opa!!!
High,vova,privvvvki
Normal,petya,   opa!!!
High,vova,privvvvki
Normal,petya,   opa!!!
High,vova,privvvvki
Normal,petya,   opa!!!
High,vova,privvvvki
Normal,petya,   opa!!!
High,vova,privvvvki
Normal,petya,   opa!!!
High,vova,privvvvki
Normal,petya,   opa!!!
High,vova,privvvvki
Normal,petya,   opa!!!
High,vova,privvvvki
Normal,petya,   opa!!!
High,vova,privvvvki
Normal,petya,   opa!!!
High,vova,privvvvki
Normal,petya,   opa!!!
High,vova,privvvvki
Normal,petya,   opa!!!
High,vova,privvvvki
Normal,petya,   opa!!!
High,vova,privvvvki
Normal,petya,   opa!!!
High,vova,privvvvki
Normal,petya,   opa!!!
High,vova,privvvvki
Normal,petya,   opa!!!
High,vova,privvvvki
Normal,petya,   opa!!!
High,vova,privvvvki
Normal,petya,   opa!!!
High,vova,privvvvki
Normal,petya,   opa!!!
High,vova,privvvvki
Normal,petya,   opa!!!
High,vova,privvvvki
Normal,petya,   opa!!!
High,vova,privvvvki
Normal,petya,   opa!!!
High,vova,privvvvki
Normal,petya,   opa!!!
High,vova,privvvvki
Normal,petya,   opa!!!
High,vova,privvvvki
Normal,petya,   opa!!!
High,vova,privvvvki
Normal,petya,   opa!!!
High,vova,privvvvki
Normal,petya,   opa!!!
High,vova,privvvvki
Normal,petya,   opa!!!
High,vova,privvvvki
Normal,petya,   opa!!!
High,vova,privvvvki
Normal,petya,   opa!!!
High,vova,privvvvki
Normal,petya,   opa!!!
High,vova,privvvvki
Normal,petya,   opa!!!
High,vova,privvvvki
Normal,petya,   opa!!!
High,vova,privvvvki
Normal,petya,   opa!!!
High,vova,privvvvki
Normal,petya,   opa!!!
High,vova,privvvvki
Normal,petya,   opa!!!
High,vova,privvvvki
Normal,petya,   opa!!!
High,vova,privvvvki
Normal,petya,   opa!!!
High,vova,privvvvki
Normal,petya,   opa!!!
High,vova,privvvvki
Normal,petya,   opa!!!
High,vova,privvvvki
Normal,petya,   opa!!!
High,vova,privvvvki
Normal,petya,   opa!!!
High,vova,privvvvki
Normal,petya,   opa!!!
High,vova,privvvvki
Normal,petya,   opa!!!
High,vova,privvvvki
Normal,petya,   opa!!!
High,vova,privvvvki
Normal,petya,   opa!!!
High,vova,privvvvki
Normal,petya,   opa!!!
High,vova,privvvvki
Normal,petya,   opa!!!
High,vova,privvvvki
Normal,petya,   opa!!!
High,vova,privvvvki
Normal,petya,   opa!!!
High,vova,privvvvki
Normal,petya,   opa!!!
High,vova,privvvvki
Normal,petya,   opa!!!
High,vova,privvvvki
Normal,petya,   opa!!!
High,vova,privvvvki
Normal,petya,   opa!!!
High,vova,privvvvki
Normal,petya,   opa!!!
High,vova,privvvvki
Normal,petya,   opa!!!
High,vova,privvvvki
Normal,petya,   opa!!!
High,vova,privvvvki
Normal,petya,   opa!!!
High,vova,privvvvki
Normal,petya,   opa!!!
High,vova,privvvvki
Normal,petya,   opa!!!
High,vova,privvvvki
Normal,petya,   opa!!!
High,vova,privvvvki
Normal,petya,   opa!!!
High,vova,privvvvki
Normal,petya,   opa!!!
High,vova,privvvvki
Normal,petya,   opa!!!
High,vova,privvvvki
Normal,petya,   opa!!!
High,vova,privvvvki
Normal,petya,   opa!!!
High,vova,privvvvki
Normal,petya,   opa!!!
High,vova,privvvvki
Normal,petya,   opa!!!
High,vova,privvvvki
Normal,petya,   opa!!!
High,vova,privvvvki
Normal,petya,   opa!!!
High,vova,privvvvki
Normal,petya,   opa!!!
High,vova,privvvvki
Normal,petya,   opa!!!
High,vova,privvvvki
Normal,petya,   opa!!!
High,vova,privvvvki
Normal,petya,   opa!!!
High,vova,privvvvki
Normal,petya,   opa!!!
High,vova,privvvvki
Normal,petya,   opa!!!
High,vova,privvvvki
Normal,petya,   opa!!!
High,vova,privvvvki
Normal,petya,   opa!!!
High,vova,privvvvki
Normal,petya,   opa!!!
High,vova,privvvvki
Normal,petya,   opa!!!
High,vova,privvvvki
Normal,petya,   opa!!!
High,vova,privvvvki
Normal,petya,   opa!!!
High,vova,privvvvki
Normal,petya,   opa!!!
High,vova,privvvvki
Normal,petya,   opa!!!
High,vova,privvvvki
Normal,petya,   opa!!!
High,vova,privvvvki
Normal,petya,   opa!!!
High,vova,privvvvki
Normal,petya,   opa!!!
High,vova,privvvvki
Normal,petya,   opa!!!
High,vova,privvvvki
Normal,petya,   opa!!!
High,vova,privvvvki
Normal,petya,   opa!!!
High,vova,privvvvki
Normal,petya,   opa!!!
High,vova,privvvvki
Normal,petya,   opa!!!
High,vova,privvvvki
Normal,petya,   opa!!!
High,vova,privvvvki
Normal,petya,   opa!!!
High,vova,privvvvki
Normal,petya,   opa!!!
High,vova,privvvvki
Normal,petya,   opa!!!
High,vova,privvvvki
Normal,petya,   opa!!!
High,vova,privvvvki
Normal,petya,   opa!!!
High,vova,privvvvki
Normal,petya,   opa!!!
High,vova,privvvvki
Normal,petya,   opa!!!
High,vova,privvvvki
Normal,petya,   opa!!!
High,vova,privvvvki
Normal,petya,   opa!!!
High,vova,privvvvki
Normal,petya,   opa!!!
High,vova,privvvvki
Normal,petya,   opa!!!
High,vova,privvvvki
Normal,petya,   opa!!!
High,vova,privvvvki
Normal,petya,   opa!!!
High,vova,privvvvki
Normal,petya,   opa!!!
High,vova,privvvvki
Normal,petya,   opa!!!
High,vova,privvvvki
Normal,petya,   opa!!!
High,vova,privvvvki
Normal,petya,   opa!!!
High,vova,privvvvki
Normal,petya,   opa!!!
High,vova,privvvvki
Normal,petya,   opa!!!
High,vova,privvvvki
Normal,petya,   opa!!!
High,vova,privvvvki
Normal,petya,   opa!!!
High,vova,privvvvki
Normal,petya,   opa!!!
Normal,petya,   opa!!!
High,vova,privvvvki
High,vova,privvvvki
Normal,petya,   opa!!!
Normal,petya,   opa!!!
High,vova,privvvvki
High,vova,privvvvki
Normal,petya,   opa!!!
Normal,petya,   opa!!!
High,vova,privvvvki
High,vova,privvvvki
Normal,petya,   opa!!!
High,vova,privvvvki
Normal,petya,   opa!!!
Normal,petya,   opa!!!
High,vova,privvvvki
Normal,petya,   opa!!!
High,vova,privvvvki
High,vova,privvvvki
Normal,petya,   opa!!!
Normal,petya,   opa!!!
High,vova,privvvvki
Normal,petya,   opa!!!
High,vova,privvvvki
High,vova,privvvvki
Normal,petya,   opa!!!
High,vova,privvvvki
Normal,petya,   opa!!!
Normal,petya,   opa!!!
High,vova,privvvvki
Normal,petya,   opa!!!
High,vova,privvvvki
High,vova,privvvvki
Normal,petya,   opa!!!
Normal,petya,   opa!!!
High,vova,privvvvki
High,vova,privvvvki
Normal,petya,   opa!!!
Normal,petya,   opa!!!
High,vova,privvvvki
High,vova,privvvvki
Normal,petya,   opa!!!
Normal,petya,   opa!!!
High,vova,privvvvki
Normal,petya,   opa!!!
High,vova,privvvvki
Normal,petya,   opa!!!
High,vova,privvvvki
High,vova,privvvvki
Normal,petya,   opa!!!
High,vova,privvvvki
Normal,petya,   opa!!!
High,vova,privvvvki
Normal,petya,   opa!!!
High,vova,privvvvki
Normal,petya,   opa!!!
Normal,petya,   opa!!!
High,vova,privvvvki
High,vova,privvvvki
Normal,petya,   opa!!!
High,vova,privvvvki
Normal,petya,   opa!!!
High,vova,privvvvki
Normal,petya,   opa!!!
High,vova,privvvvki
Normal,petya,   opa!!!
High,vova,privvvvki
Normal,petya,   opa!!!
High,vova,privvvvki
Normal,petya,   opa!!!
High,vova,privvvvki
Normal,petya,   opa!!!
High,vova,privvvvki
Normal,petya,   opa!!!
High,vova,privvvvki
Normal,petya,   opa!!!
High,vova,privvvvki
Normal,petya,   opa!!!
High,vova,privvvvki
Normal,petya,   opa!!!
High,vova,privvvvki
Normal,petya,   opa!!!
High,vova,privvvvki
Normal,petya,   opa!!!
High,vova,privvvvki
Normal,petya,   opa!!!
High,vova,privvvvki
Normal,petya,   opa!!!
High,vova,privvvvki
Normal,petya,   opa!!!
Normal,petya,   opa!!!
High,vova,privvvvki
High,vova,privvvvki
Normal,petya,   opa!!!
High,vova,privvvvki
Normal,petya,   opa!!!
Normal,petya,   opa!!!
High,vova,privvvvki
High,vova,privvvvki
Normal,petya,   opa!!!
Normal,petya,   opa!!!
High,vova,privvvvki
High,vova,privvvvki
Normal,petya,   opa!!!
Normal,petya,   opa!!!
High,vova,privvvvki
High,vova,privvvvki
Normal,petya,   opa!!!
High,vova,privvvvki
Normal,petya,   opa!!!
High,vova,privvvvki
Normal,petya,   opa!!!
High,vova,privvvvki
Normal,petya,   opa!!!
High,vova,privvvvki
Normal,petya,   opa!!!
Normal,petya,   opa!!!
High,vova,privvvvki
Normal,petya,   opa!!!
High,vova,privvvvki
Normal,petya,   opa!!!
High,vova,privvvvki
Normal,petya,   opa!!!
High,vova,privvvvki
Normal,petya,   opa!!!
High,vova,privvvvki
Normal,petya,   opa!!!
High,vova,privvvvki
Normal,petya,   opa!!!
High,vova,privvvvki
Normal,petya,   opa!!!
High,vova,privvvvki
Normal,petya,   opa!!!
High,vova,privvvvki
Normal,petya,   opa!!!
High,vova,privvvvki
Normal,petya,   opa!!!
High,vova,privvvvki
Normal,petya,   opa!!!
High,vova,privvvvki
Normal,petya,   opa!!!
High,vova,privvvvki
Normal,petya,   opa!!!
High,vova,privvvvki
Normal,petya,   opa!!!
High,vova,privvvvki
Normal,petya,   opa!!!
High,vova,privvvvki
Normal,petya,   opa!!!
High,vova,privvvvki
Normal,petya,   opa!!!
High,vova,privvvvki
Normal,petya,   opa!!!
High,vova,privvvvki
Normal,petya,   opa!!!
High,vova,privvvvki
Normal,petya,   opa!!!
High,vova,privvvvki
Normal,petya,   opa!!!
High,vova,privvvvki
Normal,petya,   opa!!!
High,vova,privvvvki
Normal,petya,   opa!!!
High,vova,privvvvki
Normal,petya,   opa!!!
High,vova,privvvvki
Normal,petya,   opa!!!
High,vova,privvvvki
Normal,petya,   opa!!!
High,vova,privvvvki
Normal,petya,   opa!!!
High,vova,privvvvki
Normal,petya,   opa!!!
High,vova,privvvvki
Normal,petya,   opa!!!
High,vova,privvvvki
Normal,petya,   opa!!!
High,vova,privvvvki
Normal,petya,   opa!!!
High,vova,privvvvki
Normal,petya,   opa!!!
High,vova,privvvvki
Normal,petya,   opa!!!
High,vova,privvvvki
Normal,petya,   opa!!!
High,vova,privvvvki
Normal,petya,   opa!!!
High,vova,privvvvki
Normal,petya,   opa!!!
High,vova,privvvvki
Normal,petya,   opa!!!
High,vova,privvvvki
Normal,petya,   opa!!!
High,vova,privvvvki
Normal,petya,   opa!!!
High,vova,privvvvki
Normal,petya,   opa!!!
High,vova,privvvvki
Normal,petya,   opa!!!
High,vova,privvvvki
Normal,petya,   opa!!!
High,vova,privvvvki
Normal,petya,   opa!!!
High,vova,privvvvki
Normal,petya,   opa!!!
High,vova,privvvvki
Normal,petya,   opa!!!
High,vova,privvvvki
Normal,petya,   opa!!!
High,vova,privvvvki
Normal,petya,   opa!!!
High,vova,privvvvki
Normal,petya,   opa!!!
High,vova,privvvvki
Normal,petya,   opa!!!
High,vova,privvvvki
Normal,petya,   opa!!!
High,vova,privvvvki
Normal,petya,   opa!!!
High,vova,privvvvki
Normal,petya,   opa!!!
High,vova,privvvvki
Normal,petya,   opa!!!
High,vova,privvvvki
Normal,petya,   opa!!!
High,vova,privvvvki
Normal,petya,   opa!!!
High,vova,privvvvki
Normal,petya,   opa!!!
High,vova,privvvvki
High,vova,privvvvki
Normal,petya,   opa!!!
Normal,petya,   opa!!!
High,vova,privvvvki
Normal,petya,   opa!!!
High,vova,privvvvki
High,vova,privvvvki
Normal,petya,   opa!!!
High,vova,privvvvki
Normal,petya,   opa!!!
High,vova,privvvvki
Normal,petya,   opa!!!
Normal,petya,   opa!!!
High,vova,privvvvki
Normal,petya,   opa!!!
High,vova,privvvvki
High,vova,privvvvki
Normal,petya,   opa!!!
High,vova,privvvvki
Normal,petya,   opa!!!
High,vova,privvvvki
Normal,petya,   opa!!!
High,vova,privvvvki
Normal,petya,   opa!!!
High,vova,privvvvki
Normal,petya,   opa!!!
High,vova,privvvvki
Normal,petya,   opa!!!
High,vova,privvvvki
Normal,petya,   opa!!!
Normal,petya,   opa!!!
High,vova,privvvvki
High,vova,privvvvki
Normal,petya,   opa!!!
High,vova,privvvvki
Normal,petya,   opa!!!
Normal,petya,   opa!!!
High,vova,privvvvki
Normal,petya,   opa!!!
High,vova,privvvvki
High,vova,privvvvki
Normal,petya,   opa!!!
High,vova,privvvvki
Normal,petya,   opa!!!
Normal,petya,   opa!!!
High,vova,privvvvki
Normal,petya,   opa!!!
High,vova,privvvvki
High,vova,privvvvki
Normal,petya,   opa!!!
Normal,petya,   opa!!!
High,vova,privvvvki
High,vova,privvvvki
Normal,petya,   opa!!!
Normal,petya,   opa!!!
High,vova,privvvvki
High,vova,privvvvki
Normal,petya,   opa!!!
High,vova,privvvvki
Normal,petya,   opa!!!
High,vova,privvvvki
Normal,petya,   opa!!!
Normal,petya,   opa!!!
High,vova,privvvvki
Normal,petya,   opa!!!
High,vova,privvvvki
High,vova,privvvvki
Normal,petya,   opa!!!
High,vova,privvvvki
Normal,petya,   opa!!!
Normal,petya,   opa!!!
High,vova,privvvvki
High,vova,privvvvki
Normal,petya,   opa!!!
Normal,petya,   opa!!!
High,vova,privvvvki
High,vova,privvvvki
Normal,petya,   opa!!!
Normal,petya,   opa!!!
High,vova,privvvvki
High,vova,privvvvki
Normal,petya,   opa!!!
Normal,petya,   opa!!!
High,vova,privvvvki
Normal,petya,   opa!!!
High,vova,privvvvki
Normal,petya,   opa!!!
High,vova,privvvvki
High,vova,privvvvki
Normal,petya,   opa!!!
High,vova,privvvvki
Normal,petya,   opa!!!
Normal,petya,   opa!!!
High,vova,privvvvki
High,vova,privvvvki
Normal,petya,   opa!!!
Normal,petya,   opa!!!
High,vova,privvvvki
High,vova,privvvvki
Normal,petya,   opa!!!
High,vova,privvvvki
Normal,petya,   opa!!!
Normal,petya,   opa!!!
High,vova,privvvvki
High,vova,privvvvki
Normal,petya,   opa!!!
High,vova,privvvvki
Normal,petya,   opa!!!
High,vova,privvvvki
Normal,petya,   opa!!!
High,vova,privvvvki
Normal,petya,   opa!!!
High,vova,privvvvki
Normal,petya,   opa!!!
High,vova,privvvvki
Normal,petya,   opa!!!
High,vova,privvvvki
Normal,petya,   opa!!!
High,vova,privvvvki
Normal,petya,   opa!!!
High,vova,privvvvki
Normal,petya,   opa!!!
High,vova,privvvvki
Normal,petya,   opa!!!
High,vova,privvvvki
Normal,petya,   opa!!!
High,vova,privvvvki
Normal,petya,   opa!!!
High,vova,privvvvki
Normal,petya,   opa!!!
High,vova,privvvvki
Normal,petya,   opa!!!
Normal,petya,   opa!!!
High,vova,privvvvki
Normal,petya,   opa!!!
High,vova,privvvvki
Normal,petya,   opa!!!
High,vova,privvvvki
High,vova,privvvvki
Normal,petya,   opa!!!
Normal,petya,   opa!!!
High,vova,privvvvki
Normal,petya,   opa!!!
High,vova,privvvvki
High,vova,privvvvki
Normal,petya,   opa!!!
High,vova,privvvvki
Normal,petya,   opa!!!
High,vova,privvvvki
Normal,petya,   opa!!!
High,vova,privvvvki
Normal,petya,   opa!!!
Normal,petya,   opa!!!
High,vova,privvvvki
Normal,petya,   opa!!!
High,vova,privvvvki
Normal,petya,   opa!!!
High,vova,privvvvki
Normal,petya,   opa!!!
High,vova,privvvvki
High,vova,privvvvki
Normal,petya,   opa!!!
High,vova,privvvvki
Normal,petya,   opa!!!
High,vova,privvvvki
Normal,petya,   opa!!!
High,vova,privvvvki
Normal,petya,   opa!!!
High,vova,privvvvki
Normal,petya,   opa!!!
High,vova,privvvvki
Normal,petya,   opa!!!
High,vova,privvvvki
Normal,petya,   opa!!!
Normal,petya,   opa!!!
High,vova,privvvvki
High,vova,privvvvki
Normal,petya,   opa!!!
High,vova,privvvvki
Normal,petya,   opa!!!
Normal,petya,   opa!!!
High,vova,privvvvki
High,vova,privvvvki
Normal,petya,   opa!!!
High,vova,privvvvki
Normal,petya,   opa!!!
Normal,petya,   opa!!!
High,vova,privvvvki
High,vova,privvvvki
Normal,petya,   opa!!!
Normal,petya,   opa!!!
High,vova,privvvvki
Normal,petya,   opa!!!
High,vova,privvvvki
High,vova,privvvvki
Normal,petya,   opa!!!
Normal,petya,   opa!!!
High,vova,privvvvki
High,vova,privvvvki
Normal,petya,   opa!!!
High,vova,privvvvki
Normal,petya,   opa!!!
Normal,petya,   opa!!!
High,vova,privvvvki
High,vova,privvvvki
Normal,petya,   opa!!!
High,vova,privvvvki
Normal,petya,   opa!!!
High,vova,privvvvki
Normal,petya,   opa!!!
High,vova,privvvvki
Normal,petya,   opa!!!
High,vova,privvvvki
Normal,petya,   opa!!!
High,vova,privvvvki
Normal,petya,   opa!!!
High,vova,privvvvki
Normal,petya,   opa!!!
High,vova,privvvvki
Normal,petya,   opa!!!
High,vova,privvvvki
Normal,petya,   opa!!!
High,vova,privvvvki
Normal,petya,   opa!!!
High,vova,privvvvki
Normal,petya,   opa!!!
High,vova,privvvvki
Normal,petya,   opa!!!
High,vova,privvvvki
Normal,petya,   opa!!!
High,vova,privvvvki
Normal,petya,   opa!!!
High,vova,privvvvki
Normal,petya,   opa!!!
High,vova,privvvvki
Normal,petya,   opa!!!
High,vova,privvvvki
Normal,petya,   opa!!!
High,vova,privvvvki
Normal,petya,   opa!!!
High,vova,privvvvki
Normal,petya,   opa!!!
High,vova,privvvvki
Normal,petya,   opa!!!
High,vova,privvvvki
Normal,petya,   opa!!!
High,vova,privvvvki
Normal,petya,   opa!!!
High,vova,privvvvki
Normal,petya,   opa!!!
High,vova,privvvvki
Normal,petya,   opa!!!
High,vova,privvvvki
Normal,petya,   opa!!!
High,vova,privvvvki
Normal,petya,   opa!!!
High,vova,privvvvki
Normal,petya,   opa!!!
High,vova,privvvvki
Normal,petya,   opa!!!
High,vova,privvvvki
Normal,petya,   opa!!!
High,vova,privvvvki
Normal,petya,   opa!!!
High,vova,privvvvki
Normal,petya,   opa!!!
High,vova,privvvvki
Normal,petya,   opa!!!
High,vova,privvvvki
Normal,petya,   opa!!!
High,vova,privvvvki
Normal,petya,   opa!!!
High,vova,privvvvki
Normal,petya,   opa!!!
High,vova,privvvvki
Normal,petya,   opa!!!
High,vova,privvvvki
Normal,petya,   opa!!!
High,vova,privvvvki
Normal,petya,   opa!!!
High,vova,privvvvki
Normal,petya,   opa!!!
High,vova,privvvvki
Normal,petya,   opa!!!
High,vova,privvvvki
Normal,petya,   opa!!!
High,vova,privvvvki
Normal,petya,   opa!!!
High,vova,privvvvki
Normal,petya,   opa!!!
High,vova,privvvvki
Normal,petya,   opa!!!
High,vova,privvvvki
Normal,petya,   opa!!!
High,vova,privvvvki
Normal,petya,   opa!!!
Normal,petya,   opa!!!
High,vova,privvvvki
Normal,petya,   opa!!!
High,vova,privvvvki
High,vova,privvvvki
Normal,petya,   opa!!!
High,vova,privvvvki
Normal,petya,   opa!!!
Normal,petya,   opa!!!
High,vova,privvvvki
High,vova,privvvvki
Normal,petya,   opa!!!
High,vova,privvvvki
Normal,petya,   opa!!!
Normal,petya,   opa!!!
High,vova,privvvvki
Normal,petya,   opa!!!
High,vova,privvvvki
Normal,petya,   opa!!!
High,vova,privvvvki
Normal,petya,   opa!!!
High,vova,privvvvki
Normal,petya,   opa!!!
High,vova,privvvvki
Normal,petya,   opa!!!
High,vova,privvvvki
Normal,petya,   opa!!!
High,vova,privvvvki
Normal,petya,   opa!!!
High,vova,privvvvki
Normal,petya,   opa!!!
High,vova,privvvvki
High,vova,privvvvki
Normal,petya,   opa!!!
Normal,petya,   opa!!!
High,vova,privvvvki
High,vova,privvvvki
Normal,petya,   opa!!!
High,vova,privvvvki
Normal,petya,   opa!!!
High,vova,privvvvki
Normal,petya,   opa!!!
Normal,petya,   opa!!!
High,vova,privvvvki
Normal,petya,   opa!!!
High,vova,privvvvki
Normal,petya,   opa!!!
High,vova,privvvvki
Normal,petya,   opa!!!
High,vova,privvvvki
Normal,petya,   opa!!!
High,vova,privvvvki
Normal,petya,   opa!!!
High,vova,privvvvki
Normal,petya,   opa!!!
High,vova,privvvvki
Normal,petya,   opa!!!
High,vova,privvvvki
Normal,petya,   opa!!!
High,vova,privvvvki
Normal,petya,   opa!!!
High,vova,privvvvki
Normal,petya,   opa!!!
High,vova,privvvvki
Normal,petya,   opa!!!
High,vova,privvvvki
Normal,petya,   opa!!!
High,vova,privvvvki
High,vova,privvvvki
Normal,petya,   opa!!!
Normal,petya,   opa!!!
High,vova,privvvvki
High,vova,privvvvki
Normal,petya,   opa!!!
High,vova,privvvvki
Normal,petya,   opa!!!
Normal,petya,   opa!!!
High,vova,privvvvki
High,vova,privvvvki
Normal,petya,   opa!!!
High,vova,privvvvki
Normal,petya,   opa!!!
Normal,petya,   opa!!!
High,vova,privvvvki
Normal,petya,   opa!!!
High,vova,privvvvki
Normal,petya,   opa!!!
High,vova,privvvvki
Normal,petya,   opa!!!
High,vova,privvvvki
Normal,petya,   opa!!!
High,vova,privvvvki
Normal,petya,   opa!!!
High,vova,privvvvki
Normal,petya,   opa!!!
High,vova,privvvvki
Normal,petya,   opa!!!
High,vova,privvvvki
Normal,petya,   opa!!!
High,vova,privvvvki
Normal,petya,   opa!!!
High,vova,privvvvki
Normal,petya,   opa!!!
High,vova,privvvvki
Normal,petya,   opa!!!
High,vova,privvvvki
Normal,petya,   opa!!!
High,vova,privvvvki
Normal,petya,   opa!!!
High,vova,privvvvki
Normal,petya,   opa!!!
High,vova,privvvvki
Normal,petya,   opa!!!
High,vova,privvvvki
Normal,petya,   opa!!!
High,vova,privvvvki
Normal,petya,   opa!!!
High,vova,privvvvki
Normal,petya,   opa!!!
High,vova,privvvvki
Normal,petya,   opa!!!
High,vova,privvvvki
Normal,petya,   opa!!!
High,vova,privvvvki
Normal,petya,   opa!!!
High,vova,privvvvki
Normal,petya,   opa!!!
High,vova,privvvvki
Normal,petya,   opa!!!
High,vova,privvvvki
Normal,petya,   opa!!!
High,vova,privvvvki
Normal,petya,   opa!!!
High,vova,privvvvki
Normal,petya,   opa!!!
High,vova,privvvvki
Normal,petya,   opa!!!
High,vova,privvvvki
Normal,petya,   opa!!!
High,vova,privvvvki
Normal,petya,   opa!!!
High,vova,privvvvki
Normal,petya,   opa!!!
High,vova,privvvvki
Normal,petya,   opa!!!
High,vova,privvvvki
Normal,petya,   opa!!!
High,vova,privvvvki
Normal,petya,   opa!!!
High,vova,privvvvki
Normal,petya,   opa!!!
High,vova,privvvvki
Normal,petya,   opa!!!
High,vova,privvvvki
Normal,petya,   opa!!!
High,vova,privvvvki
Normal,petya,   opa!!!
High,vova,privvvvki
Normal,petya,   opa!!!
High,vova,privvvvki
Normal,petya,   opa!!!
High,vova,privvvvki
Normal,petya,   opa!!!
High,vova,privvvvki
Normal,petya,   opa!!!
High,vova,privvvvki
Normal,petya,   opa!!!
High,vova,privvvvki
Normal,petya,   opa!!!
High,vova,privvvvki
Normal,petya,   opa!!!
High,vova,privvvvki
Normal,petya,   opa!!!
High,vova,privvvvki
Normal,petya,   opa!!!
High,vova,privvvvki
Normal,petya,   opa!!!
High,vova,privvvvki
Normal,petya,   opa!!!
High,vova,privvvvki
Normal,petya,   opa!!!
High,vova,privvvvki
Normal,petya,   opa!!!
High,vova,privvvvki
Normal,petya,   opa!!!
High,vova,privvvvki
Normal,petya,   opa!!!
High,vova,privvvvki
Normal,petya,   opa!!!
High,vova,privvvvki
Normal,petya,   opa!!!
High,vova,privvvvki
Normal,petya,   opa!!!
High,vova,privvvvki
Normal,petya,   opa!!!
High,vova,privvvvki
Normal,petya,   opa!!!
High,vova,privvvvki
Normal,petya,   opa!!!
High,vova,privvvvki
Normal,petya,   opa!!!
High,vova,privvvvki
Normal,petya,   opa!!!
High,vova,privvvvki
Normal,petya,   opa!!!
High,vova,privvvvki
Normal,petya,   opa!!!
High,vova,privvvvki
Normal,petya,   opa!!!
High,vova,privvvvki
Normal,petya,   opa!!!
High,vova,privvvvki
Normal,petya,   opa!!!
High,vova,privvvvki
Normal,petya,   opa!!!
High,vova,privvvvki
Normal,petya,   opa!!!
High,vova,privvvvki
Normal,petya,   opa!!!
High,vova,privvvvki
Normal,petya,   opa!!!
High,vova,privvvvki
Normal,petya,   opa!!!
High,vova,privvvvki
Normal,petya,   opa!!!
High,vova,privvvvki
Normal,petya,   opa!!!
High,vova,privvvvki
Normal,petya,   opa!!!
High,vova,privvvvki
Normal,petya,   opa!!!
High,vova,privvvvki
Normal,petya,   opa!!!
High,vova,privvvvki
Normal,petya,   opa!!!
High,vova,privvvvki
Normal,petya,   opa!!!
High,vova,privvvvki
Normal,petya,   opa!!!
High,vova,privvvvki
Normal,petya,   opa!!!
High,vova,privvvvki
Normal,petya,   opa!!!
High,vova,privvvvki
Normal,petya,   opa!!!
High,vova,privvvvki
Normal,petya,   opa!!!
High,vova,privvvvki
Normal,petya,   opa!!!
High,vova,privvvvki
Normal,petya,   opa!!!
High,vova,privvvvki
Normal,petya,   opa!!!
High,vova,privvvvki
Normal,petya,   opa!!!
High,vova,privvvvki
Normal,petya,   opa!!!
High,vova,privvvvki
High,vova,privvvvki
Normal,petya,   opa!!!
Normal,petya,   opa!!!
High,vova,privvvvki
Normal,petya,   opa!!!
High,vova,privvvvki
Normal,petya,   opa!!!
High,vova,privvvvki
High,vova,privvvvki
Normal,petya,   opa!!!
High,vova,privvvvki
Normal,petya,   opa!!!
Normal,petya,   opa!!!
High,vova,privvvvki
High,vova,privvvvki
Normal,petya,   opa!!!
Normal,petya,   opa!!!
High,vova,privvvvki
High,vova,privvvvki
High,vova,privvvvki
High,vova,privvvvki
High,vova,privvvvki
High,vova,privvvvki
High,vova,privvvvki
High,vova,privvvvki
High,vova,privvvvki
High,vova,privvvvki
High,vova,privvvvki
High,vova,privvvvki
High,vova,privvvvki
High,vova,privvvvki
High,vova,privvvvki
High,vova,privvvvki
High,vova,privvvvki
High,vova,privvvvki
High,vova,privvvvki
High,vova,privvvvki
High,vova,privvvvki
High,vova,privvvvki
High,vova,privvvvki
High,vova,privvvvki
Normal,client1,hello
Normal,client1,hello
Normal,client1,hello
Normal,client1,hello
Normal,client1,hello
Normal,client1,hello
Normal,client1,hello
Normal,client1,hello
Normal,client1,hello
Normal,client1,hello
High,client2,world
Normal,client1,hello
High,client2,world
Normal,client1,hello
High,client2,world
Normal,client1,hello
High,client2,world
Normal,client1,hello
High,client2,world
Normal,client1,hello
High,client2,world
Normal,client1,hello
High,client2,world
Normal,client1,hello
High,client2,world
Normal,client1,hello
High,client2,world
Normal,client1,hello
High,client2,world
Normal,client1,hello
High,client2,world
Normal,client1,hello
High,client2,world
Normal,client1,hello
High,client2,world
Normal,client1,hello
High,client2,world
Normal,client1,hello
High,client2,world
Normal,client1,hello
High,client2,world
Normal,client1,hello
High,client2,world
Normal,client1,hello
High,client2,world
Normal,client1,hello
High,client2,world
Normal,client1,hello
High,client2,world
Normal,client1,hello
High,client2,world
Normal,client1,hello
High,client2,world
Normal,client1,hello
High,client2,world
Normal,client1,hello
High,client2,world
Normal,client1,hello
High,client2,world
Normal,client1,hello
High,client2,world
Normal,client1,hello
High,client2,world
Normal,client1,hello
High,client2,world
Normal,client1,hello
High,client2,world
Normal,client1,hello
High,client2,world
Normal,client1,hello
High,client2,world
Normal,client1,hello
High,client2,world
Normal,client1,hello
High,client2,world
Normal,client1,hello
High,client2,world
Normal,client1,hello
High,client2,world
Normal,client1,hello
High,client2,world
Normal,client1,hello
High,client2,world
Normal,client1,hello
High,client2,world
Normal,client1,hello
High,client2,world
Normal,client1,hello
High,client2,world
Normal,client1,hello
High,client2,world
Normal,client1,hello
High,client2,world
Normal,client1,hello
High,client2,world
Normal,client1,hello
High,client2,world
Normal,client1,hello
High,client2,world
Normal,client1,hello
High,client2,world
Normal,client1,hello
High,client2,world
Normal,client1,hello
High,client2,world
Normal,client1,hello
High,client2,world
Normal,client1,hello
High,client2,world
Normal,client1,hello
High,client2,world
Normal,client1,hello
High,client2,world
Normal,client1,hello
High,client2,world
Normal,client1,hello
High,client2,world
Normal,client1,hello
High,client2,world
Normal,client1,hello
High,client2,world
Normal,client1,hello
High,client2,world
Normal,client1,hello
High,client2,world
Normal,client1,hello
High,client2,world
Normal,client1,hello
High,client2,world
Normal,client1,hello
High,client2,world
Normal,client1,hello
High,client2,world
Normal,client1,hello
High,client2,world
Normal,client1,hello
High,client2,world
Normal,client1,hello
High,client2,world
Normal,client1,hello
High,client2,world
Normal,client1,hello
High,client2,world
Normal,client1,hello
High,client2,world
Normal,client1,hello
High,client2,world
Normal,client1,hello
High,client2,world
Normal,client1,hello
High,client2,world
Normal,client1,hello
High,client2,world
Normal,client1,hello
High,client2,world
Normal,client1,hello
High,client2,world
Normal,client1,hello
High,client2,world
Normal,client1,hello
High,client2,world
Normal,client1,hello
High,client2,world
Normal,client1,hello
High,client2,world
Normal,client1,hello
High,client2,world
Normal,client1,hello
High,client2,world
Normal,client1,hello
High,client2,world
Normal,client1,hello
High,client2,world
Normal,client1,hello
High,client2,world
Normal,client1,hello
High,client2,world
Normal,client1,hello
High,client2,world
Normal,client1,hello
High,client2,world
Normal,client1,hello
High,client2,world
Normal,client1,hello
High,client2,world
Normal,client1,hello
High,client2,world
Normal,client1,hello
High,client2,world
Normal,client1,hello
High,client2,world
Normal,client1,hello
High,client2,world
Normal,client1,hello
High,client2,world
Normal,client1,hello
High,client2,world
Normal,client1,hello
High,client2,world
Normal,client1,hello
High,client2,world
Normal,client1,hello
High,client2,world
Normal,client1,hello
High,client2,world
Normal,client1,hello
High,client2,world
Normal,client1,hello
High,client2,world
Normal,client1,hello
High,client2,world
Normal,client1,hello
High,client2,world
Normal,client1,hello
High,client2,world
Normal,client1,hello
High,client2,world
Normal,client1,hello
High,client2,world
Normal,client1,hello
High,client2,world
Normal,client1,hello
High,client2,world
Normal,client1,hello
High,client2,world
Normal,client1,hello
High,client2,world
Normal,client1,hello
High,client2,world
Normal,client1,hello
High,client2,world
Normal,client1,hello
High,client2,world
Normal,client1,hello
High,client2,world
Normal,client1,hello
High,client2,world
Normal,client1,hello
High,client2,world
Normal,client1,hello
High,client2,world
Normal,client1,hello
High,client2,world
Normal,client1,hello
High,client2,world
Normal,client1,hello
High,client2,world
Normal,client1,hello
High,client2,world
Normal,client1,hello
High,client2,world
Normal,client1,hello
High,client2,world
Normal,client1,hello
High,client2,world
Normal,client1,hello
High,client2,world
Normal,client1,hello
High,client2,world
Normal,client1,hello
High,client2,world
Normal,client1,hello
High,client2,world
Normal,client1,hello
High,client2,world
Normal,client1,hello
High,client2,world
Normal,client1,hello
High,client2,world
Normal,client1,hello
High,client2,world
Normal,client1,hello
High,client2,world
Normal,client1,hello
High,client2,world
Normal,client1,hello
High,client2,world
Normal,client1,hello
High,client2,world
Normal,client1,hello
High,client2,world
Normal,client1,hello
High,client2,world
Normal,client1,hello
High,client2,world
Normal,client1,hello
High,client2,world
Normal,client1,hello
High,client2,world
Normal,client1,hello
High,client2,world
Normal,client1,hello
High,client2,world
Normal,client1,hello
High,client2,world
Normal,client1,hello
High,client2,world
Normal,client1,hello
High,client2,world
Normal,client1,hello
High,client2,world
Normal,client1,hello
High,client2,world
Normal,client1,hello
High,client2,world
Normal,client1,hello
High,client2,world
Normal,client1,hello
High,client2,world
Normal,client1,hello
High,client2,world
Normal,client1,hello
High,client2,world
Normal,client1,hello
High,client2,world
Normal,client1,hello
High,client2,world
Normal,client1,hello
High,client2,world
Normal,client1,hello
High,client2,world
Normal,client1,hello
High,client2,world
Normal,client1,hello
High,client2,world
Normal,client1,hello
High,client2,world
Normal,client1,hello
High,client2,world
Normal,client1,hello
High,client2,world
Normal,client1,hello
High,client2,world
Normal,client1,hello
High,client2,world
Normal,client1,hello
High,client2,world
Normal,client1,hello
High,client2,world
Normal,client1,hello
High,client2,world
Normal,client1,hello
High,client2,world
Normal,client1,hello
High,client2,world
Normal,client1,hello
High,client2,world
Normal,client1,hello
High,client2,world
Normal,client1,hello
High,client2,world
Normal,client1,hello
High,client2,world
Normal,client1,hello
High,client2,world
Normal,client1,hello
High,client2,world
Normal,client1,hello
High,client2,world
Normal,client1,hello
High,client2,world
Normal,client1,hello
High,client2,world
Normal,client1,hello
High,client2,world
Normal,client1,hello
High,client2,world
Normal,client1,hello
High,client2,world
Normal,client1,hello
High,client2,world
Normal,client1,hello
High,client2,world
Normal,client1,hello
High,client2,world
Normal,client1,hello
High,client2,world
Normal,client1,hello
High,client2,world
Normal,client1,hello
High,client2,world
Normal,client1,hello
High,client2,world
Normal,client1,hello
High,client2,world
Normal,client1,hello
High,client2,world
Normal,client1,hello
High,client2,world
Normal,client1,hello
High,client2,world
Normal,client1,hello
High,client2,world
Normal,client1,hello
High,client2,world
Normal,client1,hello
High,client2,world
Normal,client1,hello
High,client2,world
Normal,client1,hello
High,client2,world
Normal,client1,hello
High,client2,world
Normal,client1,hello
High,client2,world
Normal,client1,hello
High,client2,world
Normal,client1,hello
High,client2,world
Normal,client1,hello
High,client2,world
Normal,client1,hello
High,client2,world
Normal,client1,hello
High,client2,world
Normal,client1,hello
High,client2,world
Normal,client1,hello
High,client2,world
Normal,client1,hello
High,client2,world
Normal,client1,hello
High,client2,world
Normal,client1,hello
High,client2,world
Normal,client1,hello
High,client2,world
Normal,client1,hello
High,client2,world
Normal,client1,hello
High,client2,world
Normal,client1,hello
High,client2,world
Normal,client1,hello
High,client2,world
Normal,client1,hello
High,client2,world
Normal,client1,hello
High,client2,world
Normal,client1,hello
High,client2,world
Normal,client1,hello
High,client2,world
Normal,client1,hello
High,client2,world
Normal,client1,hello
High,client2,world
Normal,client1,hello
High,client2,world
Normal,client1,hello
High,client2,world
Normal,client1,hello
High,client2,world
High,client2,world
Normal,client1,hello
High,client2,world
Normal,client1,hello
High,client2,world
Normal,client1,hello
High,client2,world
Normal,client1,hello
High,client2,world
Normal,client1,hello
High,client2,world
Normal,client1,hello
High,client2,world
Normal,client1,hello
High,client2,world
Normal,client1,hello
High,client2,world
Normal,client1,hello
High,client2,world
Normal,client1,hello
High,client2,world
Normal,client1,hello
High,client2,world
Normal,client1,hello
High,client2,world
Normal,client1,hello
High,client2,world
Normal,client1,hello
High,client2,world
Normal,client1,hello
High,client2,world
Normal,client1,hello
High,client2,world
Normal,client1,hello
High,client2,world
Normal,client1,hello
High,client2,world
Normal,client1,hello
High,client2,world
Normal,client1,hello
High,client2,world
Normal,client1,hello
High,client2,world
Normal,client1,hello
High,client2,world
Normal,client1,hello
High,client2,world
Normal,client1,hello
High,client2,world
Normal,client1,hello
High,client2,world
Normal,client1,hello
High,client2,world
Normal,client1,hello
High,client2,world
Normal,client1,hello
High,client2,world
Normal,client1,hello
High,client2,world
Normal,client1,hello
High,client2,world
Normal,client1,hello
High,client2,world
Normal,client1,hello
High,client2,world
Normal,client1,hello
High,client2,world
Normal,client1,hello
High,client2,world
Normal,client1,hello
High,client2,world
Normal,client1,hello
High,client2,world
Normal,client1,hello
High,client2,world
Normal,client1,hello
High,client2,world
Normal,client1,hello
High,client2,world
Normal,client1,hello
High,client2,world
Normal,client1,hello
High,client2,world
Normal,client1,hello
High,client2,world
Normal,client1,hello
High,client2,world
Normal,client1,hello
High,client2,world
Normal,client1,hello
High,client2,world
Normal,client1,hello
High,client2,world
Normal,client1,hello
High,client2,world
Normal,client1,hello
High,client2,world
Normal,client1,hello
High,client2,world
Normal,client1,hello
High,client2,world
Normal,client1,hello
High,client2,world
Normal,client1,hello
High,client2,world
Normal,client1,hello
High,client2,world
Normal,client1,hello
High,client2,world
Normal,client1,hello
High,client2,world
Normal,client1,hello
Normal,client1,hello
High,client2,world
Normal,client1,hello
High,client2,world
Normal,client1,hello
High,client2,world
Normal,client1,hello
High,client2,world
Normal,client1,hello
High,client2,world
Normal,client1,hello
High,client2,world
Normal,client1,hello
High,client2,world
Normal,client1,hello
High,client2,world
Normal,client1,hello
High,client2,world
Normal,client1,hello
High,client2,world
Normal,client1,hello
High,client2,world
Normal,client1,hello
High,client2,world
Normal,client1,hello
High,client2,world
Normal,client1,hello
High,client2,world
Normal,client1,hello
High,client2,world
Normal,client1,hello
High,client2,world
High,client2,world
Normal,client1,hello
High,client2,world
Normal,client1,hello
High,client2,world
Normal,client1,hello
High,client2,world
Normal,client1,hello
High,client2,world
Normal,client1,hello
High,client2,world
Normal,client1,hello
High,client2,world
Normal,client1,hello
High,client2,world
Normal,client1,hello
High,client2,world
Normal,client1,hello
High,client2,world
Normal,client1,hello
High,client2,world
Normal,client1,hello
High,client2,world
Normal,client1,hello
High,client2,world
Normal,client1,hello
High,client2,world
Normal,client1,hello
High,client2,world
Normal,client1,hello
High,client2,world
Normal,client1,hello
High,client2,world
Normal,client1,hello
High,client2,world
Normal,client1,hello
High,client2,world
Normal,client1,hello
High,client2,world
Normal,client1,hello
High,client2,world
Normal,client1,hello
High,client2,world
Normal,client1,hello
High,client2,world
Normal,client1,hello
High,client2,world
Normal,client1,hello
High,client2,world
Normal,client1,hello
High,client2,world
Normal,client1,hello
High,client2,world
Normal,client1,hello
High,client2,world
Normal,client1,hello
High,client2,world
Normal,client1,hello
High,client2,world
Normal,client1,hello
High,client2,world
Normal,client1,hello
High,client2,world
Normal,client1,hello
High,client2,world
Normal,client1,hello
High,client2,world
Normal,client1,hello
High,client2,world
Normal,client1,hello
High,client2,world
Normal,client1,hello
High,client2,world
Normal,client1,hello
High,client2,world
Normal,client1,hello
High,client2,world
Normal,client1,hello
High,client2,world
Normal,client1,hello
High,client2,world
Normal,client1,hello
High,client2,world
Normal,client1,hello
High,client2,world
Normal,client1,hello
High,client2,world
Normal,client1,hello
Normal,client1,hello
High,client2,world
Normal,client1,hello
High,client2,world
Normal,client1,hello
High,client2,world
Normal,client1,hello
High,client2,world
High,client2,world
Normal,client1,hello
Normal,client1,hello
High,client2,world
Normal,client1,hello
High,client2,world
Normal,client1,hello
High,client2,world
Normal,client1,hello
High,client2,world
Normal,client1,hello
High,client2,world
Normal,client1,hello
High,client2,world
Normal,client1,hello
High,client2,world
Normal,client1,hello
High,client2,world
High,client2,world
Normal,client1,hello
High,client2,world
Normal,client1,hello
High,client2,world
Normal,client1,hello
Normal,client1,hello
High,client2,world
Normal,client1,hello
High,client2,world
High,client2,world
Normal,client1,hello
High,client2,world
Normal,client1,hello
High,client2,world
Normal,client1,hello
High,client2,world
Normal,client1,hello
High,client2,world
Normal,client1,hello
Normal,client1,hello
High,client2,world
Normal,client1,hello
High,client2,world
Normal,client1,hello
High,client2,world
Normal,client1,hello
High,client2,world
Normal,client1,hello
High,client2,world
Normal,client1,hello
High,client2,world
Normal,client1,hello
High,client2,world
Normal,client1,hello
High,client2,world
Normal,client1,hello
High,client2,world
Normal,client1,hello
High,client2,world
Normal,client1,hello
High,client2,world
Normal,client1,hello
High,client2,world
Normal,client1,hello
High,client2,world
Normal,client1,hello
High,client2,world
Normal,client1,hello
High,client2,world
Normal,client1,hello
High,client2,world
Normal,client1,hello
High,client2,world
Normal,client1,hello
High,client2,world
Normal,client1,hello
High,client2,world
Normal,client1,hello
High,client2,world
Normal,client1,hello
High,client2,world
Normal,client1,hello
High,client2,world
Normal,client1,hello
High,client2,world
Normal,client1,hello
High,client2,world
Normal,client1,hello
High,client2,world
Normal,client1,hello
High,client2,world
Normal,client1,hello
High,client2,world
Normal,client1,hello
High,client2,world
Normal,client1,hello
High,client2,world
Normal,client1,hello
High,client2,world
Normal,client1,hello
High,client2,world
Normal,client1,hello
High,client2,world
Normal,client1,hello
High,client2,world
Normal,client1,hello
High,client2,world
Normal,client1,hello
High,client2,world
Normal,client1,hello
High,client2,world
Normal,client1,hello
High,client2,world
Normal,client1,hello
High,client2,world
Normal,client1,hello
High,client2,world
Normal,client1,hello
High,client2,world
Normal,client1,hello
High,client2,world
Normal,client1,hello
High,client2,world
Normal,client1,hello
High,client2,world
Normal,client1,hello
High,client2,world
Normal,client1,hello
High,client2,world
Normal,client1,hello
High,client2,world
High,client2,world
Normal,client1,hello
High,client2,world
Normal,client1,hello
High,client2,world
Normal,client1,hello
High,client2,world
Normal,client1,hello
High,client2,world
Normal,client1,hello
High,client2,world
Normal,client1,hello
High,client2,world
Normal,client1,hello
High,client2,world
Normal,client1,hello
High,client2,world
Normal,client1,hello
High,client2,world
Normal,client1,hello
High,client2,world
Normal,client1,hello
High,client2,world
Normal,client1,hello
High,client2,world
Normal,client1,hello
High,client2,world
Normal,client1,hello
High,client2,world
Normal,client1,hello
High,client2,world
Normal,client1,hello
High,client2,world
Normal,client1,hello
High,client2,world
Normal,client1,hello
High,client2,world
Normal,client1,hello
High,client2,world
Normal,client1,hello
High,client2,world
Normal,client1,hello
High,client2,world
Normal,client1,hello
High,client2,world
Normal,client1,hello
High,client2,world
Normal,client1,hello
High,client2,world
Normal,client1,hello
High,client2,world
Normal,client1,hello
High,client2,world
Normal,client1,hello
High,client2,world
Normal,client1,hello
High,client2,world
Normal,client1,hello
High,client2,world
Normal,client1,hello
High,client2,world
Normal,client1,hello
High,client2,world
Normal,client1,hello
High,client2,world
Normal,client1,hello
High,client2,world
Normal,client1,hello
High,client2,world
Normal,client1,hello
High,client2,world
Normal,client1,hello
High,client2,world
Normal,client1,hello
High,client2,world
Normal,client1,hello
High,client2,world
Normal,client1,hello
High,client2,world
Normal,client1,hello
High,client2,world
Normal,client1,hello
High,client2,world
Normal,client1,hello
High,client2,world
Normal,client1,hello
High,client2,world
Normal,client1,hello
High,client2,world
Normal,client1,hello
High,client2,world
Normal,client1,hello
High,client2,world
Normal,client1,hello
High,client2,world
Normal,client1,hello
High,client2,world
Normal,client1,hello
High,client2,world
Normal,client1,hello
High,client2,world
Normal,client1,hello
High,client2,world
Normal,client1,hello
High,client2,world
Normal,client1,hello
High,client2,world
Normal,client1,hello
High,client2,world
Normal,client1,hello
High,client2,world
Normal,client1,hello
High,client2,world
Normal,client1,hello
High,client2,world
Normal,client1,hello
High,client2,world
Normal,client1,hello
High,client2,world
Normal,client1,hello
High,client2,world
Normal,client1,hello
High,client2,world
Normal,client1,hello
High,client2,world
Normal,client1,hello
High,client2,world
Normal,client1,hello
High,client2,world
Normal,client1,hello
High,client2,world
Normal,client1,hello
High,client2,world
Normal,client1,hello
High,client2,world
Normal,client1,hello
High,client2,world
Normal,client1,hello
High,client2,world
Normal,client1,hello
High,client2,world
Normal,client1,hello
Normal,client1,hello
High,client2,world
High,client2,world
Normal,client1,hello
High,client2,world
Normal,client1,hello
High,client2,world
Normal,client1,hello
Normal,client1,hello
High,client2,world
Normal,client1,hello
High,client2,world
High,client2,world
Normal,client1,hello
Normal,client1,hello
High,client2,world
Normal,client1,hello
High,client2,world
Normal,client1,hello
High,client2,world
High,client2,world
Normal,client1,hello
High,client2,world
Normal,client1,hello
High,client2,world
Normal,client1,hello
High,client2,world
Normal,client1,hello
High,client2,world
Normal,client1,hello
High,client2,world
Normal,client1,hello
Normal,client1,hello
High,client2,world
High,client2,world
Normal,client1,hello
High,client2,world
Normal,client1,hello
High,client2,world
Normal,client1,hello
Normal,client1,hello
High,client2,world
Normal,client1,hello
High,client2,world
High,client2,world
Normal,client1,hello
Normal,client1,hello
High,client2,world
Normal,client1,hello
High,client2,world
Normal,client1,hello
High,client2,world
Normal,client1,hello
High,client2,world
High,client2,world
Normal,client1,hello
Normal,client1,hello
High,client2,world
Normal,client1,hello
High,client2,world
Normal,client1,hello
High,client2,world
High,client2,world
Normal,client1,hello
Normal,client1,hello
High,client2,world
High,client2,world
Normal,client1,hello
High,client2,world
Normal,client1,hello
High,client2,world
Normal,client1,hello
High,client2,world
Normal,client1,hello
Normal,client1,hello
High,client2,world
Normal,client1,hello
High,client2,world
Normal,client1,hello
High,client2,world
High,client2,world
Normal,client1,hello
High,client2,world
Normal,client1,hello
High,client2,world
Normal,client1,hello
Normal,client1,hello
High,client2,world
Normal,client1,hello
High,client2,world
High,client2,world
Normal,client1,hello
High,client2,world
Normal,client1,hello
Normal,client1,hello
High,client2,world
High,client2,world
Normal,client1,hello
High,client2,world
Normal,client1,hello
High,client2,world
Normal,client1,hello
High,client2,world
Normal,client1,hello
High,client2,world
Normal,client1,hello
High,client2,world
Normal,client1,hello
High,client2,world
Normal,client1,hello
High,client2,world
Normal,client1,hello
High,client2,world
Normal,client1,hello
High,client2,world
Normal,client1,hello
High,client2,world
Normal,client1,hello
High,client2,world
Normal,client1,hello
High,client2,world
Normal,client1,hello
High,client2,world
Normal,client1,hello
High,client2,world
Normal,client1,hello
High,client2,world
Normal,client1,hello
High,client2,world
Normal,client1,hello
High,client2,world
Normal,client1,hello
High,client2,world
Normal,client1,hello
High,client2,world
Normal,client1,hello
High,client2,world
Normal,client1,hello
High,client2,world
Normal,client1,hello
High,client2,world
Normal,client1,hello
High,client2,world
Normal,client1,hello
High,client2,world
Normal,client1,hello
High,client2,world
Normal,client1,hello
High,client2,world
Normal,client1,hello
High,client2,world
Normal,client1,hello
High,client2,world
Normal,client1,hello
High,client2,world
Normal,client1,hello
High,client2,world
Normal,client1,hello
High,client2,world
Normal,client1,hello
High,client2,world
Normal,client1,hello
High,client2,world
Normal,client1,hello
High,client2,world
Normal,client1,hello
High,client2,world
Normal,client1,hello
High,client2,world
Normal,client1,hello
High,client2,world
Normal,client1,hello
High,client2,world
Normal,client1,hello
High,client2,world
Normal,client1,hello
High,client2,world
Normal,client1,hello
High,client2,world
Normal,client1,hello
High,client2,world
Normal,client1,hello
High,client2,world
Normal,client1,hello
High,client2,world
Normal,client1,hello
High,client2,world
Normal,client1,hello
High,client2,world
Normal,client1,hello
High,client2,world
Normal,client1,hello
High,client2,world
Normal,client1,hello
High,client2,world
Normal,client1,hello
High,client2,world
Normal,client1,hello
High,client2,world
Normal,client1,hello
High,client2,world
Normal,client1,hello
High,client2,world
Normal,client1,hello
High,client2,world
Normal,client1,hello
High,client2,world
Normal,client1,hello
High,client2,world
Normal,client1,hello
High,client2,world
Normal,client1,hello
High,client2,world
Normal,client1,hello
High,client2,world
Normal,client1,hello
High,client2,world
Normal,client1,hello
High,client2,world
Normal,client1,hello
High,client2,world
Normal,client1,hello
High,client2,world
Normal,client1,hello
High,client2,world
Normal,client1,hello
High,client2,world
Normal,client1,hello
High,client2,world
Normal,client1,hello
High,client2,world
Normal,client1,hello
High,client2,world
Normal,client1,hello
High,client2,world
Normal,client1,hello
High,client2,world
Normal,client1,hello
High,client2,world
Normal,client1,hello
High,client2,world
Normal,client1,hello
High,client2,world
Normal,client1,hello
High,client2,world
Normal,client1,hello
High,client2,world
Normal,client1,hello
High,client2,world
Normal,client1,hello
High,client2,world
Normal,client1,hello
High,client2,world
Normal,client1,hello
High,client2,world
Normal,client1,hello
High,client2,world
Normal,client1,hello
High,client2,world
Normal,client1,hello
High,client2,world
Normal,client1,hello
High,client2,world
Normal,client1,hello
High,client2,world
Normal,client1,hello
High,client2,world
Normal,client1,hello
High,client2,world
Normal,client1,hello
High,client2,world
Normal,client1,hello
High,client2,world
Normal,client1,hello
High,client2,world
Normal,client1,hello
High,client2,world
Normal,client1,hello
High,client2,world
Normal,client1,hello
High,client2,world
Normal,client1,hello
High,client2,world
Normal,client1,hello
High,client2,world
Normal,client1,hello
High,client2,world
Normal,client1,hello
High,client2,world
Normal,client1,hello
High,client2,world
Normal,client1,hello
High,client2,world
Normal,client1,hello
High,client2,world
Normal,client1,hello
High,client2,world
Normal,client1,hello
High,client2,world
Normal,client1,hello
High,client2,world
Normal,client1,hello
High,client2,world
Normal,client1,hello
High,client2,world
Normal,client1,hello
High,client2,world
Normal,client1,hello
High,client2,world
Normal,client1,hello
High,client2,world
Normal,client1,hello
High,client2,world
Normal,client1,hello
High,client2,world
Normal,client1,hello
High,client2,world
Normal,client1,hello
High,client2,world
Normal,client1,hello
High,client2,world
Normal,client1,hello
High,client2,world
Normal,client1,hello
High,client2,world
Normal,client1,hello
High,client2,world
Normal,client1,hello
High,client2,world
Normal,client1,hello
High,client2,world
Normal,client1,hello
High,client2,world
Normal,client1,hello
High,client2,world
Normal,client1,hello
High,client2,world
Normal,client1,hello
High,client2,world
Normal,client1,hello
High,client2,world
Normal,client1,hello
High,client2,world
Normal,client1,hello
High,client2,world
Normal,client1,hello
High,client2,world
Normal,client1,hello
High,client2,world
Normal,client1,hello
High,client2,world
Normal,client1,hello
High,client2,world
Normal,client1,hello
High,client2,world
Normal,client1,hello
Normal,client1,hello
High,client2,world
Normal,client1,hello
High,client2,world
Normal,client1,hello
High,client2,world
Normal,client1,hello
High,client2,world
Normal,client1,hello
High,client2,world
Normal,client1,hello
High,client2,world
Normal,client1,hello
High,client2,world
Normal,client1,hello
High,client2,world
Normal,client1,hello
High,client2,world
Normal,client1,hello
High,client2,world
Normal,client1,hello
High,client2,world
Normal,client1,hello
High,client2,world
Normal,client1,hello
High,client2,world
Normal,client1,hello
High,client2,world
Normal,client1,hello
High,client2,world
Normal,client1,hello
High,client2,world
Normal,client1,hello
High,client2,world
Normal,client1,hello
High,client2,world
Normal,client1,hello
High,client2,world
Normal,client1,hello
High,client2,world
Normal,client1,hello
High,client2,world
Normal,client1,hello
High,client2,world
Normal,client1,hello
High,client2,world
Normal,client1,hello
High,client2,world
Normal,client1,hello
High,client2,world
Normal,client1,hello
High,client2,world
Normal,client1,hello
High,client2,world
Normal,client1,hello
High,client2,world
Normal,client1,hello
High,client2,world
Normal,client1,hello
High,client2,world
Normal,client1,hello
High,client2,world
Normal,client1,hello
High,client2,world
Normal,client1,hello
High,client2,world
Normal,client1,hello
High,client2,world
Normal,client1,hello
High,client2,world
Normal,client1,hello
High,client2,world
Normal,client1,hello
High,client2,world
Normal,client1,hello
High,client2,world
Normal,client1,hello
High,client2,world
Normal,client1,hello
High,client2,world
Normal,client1,hello
High,client2,world
Normal,client1,hello
High,client2,world
Normal,client1,hello
High,client2,world
Normal,client1,hello
High,client2,world
Normal,client1,hello
High,client2,world
Normal,client1,hello
High,client2,world
Normal,client1,hello
High,client2,world
Normal,client1,hello
High,client2,world
Normal,client1,hello
High,client2,world
Normal,client1,hello
High,client2,world
Normal,client1,hello
High,client2,world
Normal,client1,hello
High,client2,world
Normal,client1,hello
High,client2,world
Normal,client1,hello
High,client2,world
Normal,client1,hello
High,client2,world
Normal,client1,hello
High,client2,world
Normal,client1,hello
High,client2,world
Normal,client1,hello
High,client2,world
Normal,client1,hello
High,client2,world
Normal,client1,hello
High,client2,world
Normal,client1,hello
High,client2,world
Normal,client1,hello
High,client2,world
Normal,client1,hello
High,client2,world
Normal,client1,hello
High,client2,world
Normal,client1,hello
High,client2,world
Normal,client1,hello
High,client2,world
Normal,client1,hello
High,client2,world
Normal,client1,hello
High,client2,world
Normal,client1,hello
High,client2,world
Normal,client1,hello
High,client2,world
Normal,client1,hello
High,client2,world
Normal,client1,hello
High,client2,world
Normal,client1,hello
High,client2,world
Normal,client1,hello
High,client2,world
Normal,client1,hello
High,client2,world
Normal,client1,hello
High,client2,world
Normal,client1,hello
High,client2,world
Normal,client1,hello
High,client2,world
Normal,client1,hello
High,client2,world
Normal,client1,hello
High,client2,world
Normal,client1,hello
High,client2,world
Normal,client1,hello
High,client2,world
Normal,client1,hello
High,client2,world
Normal,client1,hello
High,client2,world
Normal,client1,hello
High,client2,world
Normal,client1,hello
High,client2,world
Normal,client1,hello
High,client2,world
Normal,client1,hello
High,client2,world
Normal,client1,hello
High,client2,world
Normal,client1,hello
High,client2,world
Normal,client1,hello
High,client2,world
Normal,client1,hello
High,client2,world
Normal,client1,hello
High,client2,world
Normal,client1,hello
High,client2,world
Normal,client1,hello
High,client2,world
Normal,client1,hello
High,client2,world
Normal,client1,hello
High,client2,world
Normal,client1,hello
High,client2,world
Normal,client1,hello
High,client2,world
Normal,client1,hello
High,client2,world
Normal,client1,hello
High,client2,world
Normal,client1,hello
High,client2,world
Normal,client1,hello
High,client2,world
Normal,client1,hello
High,client2,world
Normal,client1,hello
High,client2,world
Normal,client1,hello
High,client2,world
Normal,client1,hello
High,client2,world
Normal,client1,hello
High,client2,world
Normal,client1,hello
High,client2,world
Normal,client1,hello
High,client2,world
Normal,client1,hello
High,client2,world
Normal,client1,hello
High,client2,world
Normal,client1,hello
High,client2,world
Normal,client1,hello
High,client2,world
Normal,client1,hello
High,client2,world
Normal,client1,hello
High,client2,world
Normal,client1,hello
High,client2,world
Normal,client1,hello
High,client2,world
Normal,client1,hello
High,client2,world
Normal,client1,hello
High,client2,world
Normal,client1,hello
High,client2,world
Normal,client1,hello
High,client2,world
Normal,client1,hello
High,client2,world
Normal,client1,hello
High,client2,world
Normal,client1,hello
High,client2,world
Normal,client1,hello
High,client2,world
Normal,client1,hello
High,client2,world
Normal,client1,hello
High,client2,world
Normal,client1,hello
High,client2,world
Normal,client1,hello
High,client2,world
Normal,client1,hello
High,client2,world
Normal,client1,hello
High,client2,world
Normal,client1,hello
High,client2,world
Normal,client1,hello
High,client2,world
Normal,client1,hello
High,client2,world
Normal,client1,hello
High,client2,world
Normal,client1,hello
High,client2,world
Normal,client1,hello
High,client2,world
Normal,client1,hello
High,client2,world
Normal,client1,hello
High,client2,world
Normal,client1,hello
High,client2,world
Normal,client1,hello
High,client2,world
Normal,client1,hello
High,client2,world
Normal,client1,hello
High,client2,world
Normal,client1,hello
High,client2,world
Normal,client1,hello
High,client2,world
Normal,client1,hello
High,client2,world
Normal,client1,hello
High,client2,world
Normal,client1,hello
High,client2,world
Normal,client1,hello
High,client2,world
Normal,client1,hello
High,client2,world
Normal,client1,hello
High,client2,world
Normal,client1,hello
High,client2,world
Normal,client1,hello
High,client2,world
Normal,client1,hello
High,client2,world
Normal,client1,hello
High,client2,world
Normal,client1,hello
High,client2,world
Normal,client1,hello
High,client2,world
Normal,client1,hello
High,client2,world
Normal,client1,hello
High,client2,world
Normal,client1,hello
High,client2,world
Normal,client1,hello
High,client2,world
Normal,client1,hello
High,client2,world
Normal,client1,hello
High,client2,world
Normal,client1,hello
High,client2,world
Normal,client1,hello
High,client2,world
Normal,client1,hello
High,client2,world
Normal,client1,hello
High,client2,world
Normal,client1,hello
High,client2,world
Normal,client1,hello
High,client2,world
Normal,client1,hello
High,client2,world
Normal,client1,hello
High,client2,world
Normal,client1,hello
High,client2,world
Normal,client1,hello
High,client2,world
Normal,client1,hello
High,client2,world
Normal,client1,hello
High,client2,world
Normal,client1,hello
High,client2,world
Normal,client1,hello
High,client2,world
Normal,client1,hello
High,client2,world
Normal,client1,hello
High,client2,world
Normal,client1,hello
High,client2,world
Normal,client1,hello
High,client2,world
Normal,client1,hello
High,client2,world
Normal,client1,hello
High,client2,world
Normal,client1,hello
High,client2,world
Normal,client1,hello
High,client2,world
Normal,client1,hello
High,client2,world
Normal,client1,hello
High,client2,world
Normal,client1,hello
High,client2,world
Normal,client1,hello
High,client2,world
Normal,client1,hello
High,client2,world
Normal,client1,hello
High,client2,world
Normal,client1,hello
High,client2,world
Normal,client1,hello
High,client2,world
Normal,client1,hello
High,client2,world
Normal,client1,hello
High,client2,world
Normal,client1,hello
High,client2,world
Normal,client1,hello
High,client2,world
Normal,client1,hello
High,client2,world
Normal,client1,hello
High,client2,world
Normal,client1,hello
High,client2,world
Normal,client1,hello
High,client2,world
Normal,client1,hello
High,client2,world
Normal,client1,hello
High,client2,world
Normal,client1,hello
High,client2,world
Normal,client1,hello
High,client2,world
Normal,client1,hello
High,client2,world
Normal,client1,hello
High,client2,world
Normal,client1,hello
High,client2,world
Normal,client1,hello
High,client2,world
Normal,client1,hello
High,client2,world
Normal,client1,hello
High,client2,world
Normal,client1,hello
High,client2,world
Normal,client1,hello
High,client2,world
Normal,client1,hello
High,client2,world
Normal,client1,hello
High,client2,world
Normal,client1,hello
High,client2,world
Normal,client1,hello
High,client2,world
Normal,client1,hello
High,client2,world
Normal,client1,hello
High,client2,world
Normal,client1,hello
High,client2,world
Normal,client1,hello
High,client2,world
Normal,client1,hello
High,client2,world
Normal,client1,hello
High,client2,world
Normal,client1,hello
High,client2,world
Normal,client1,hello
High,client2,world
Normal,client1,hello
High,client2,world
Normal,client1,hello
High,client2,world
Normal,client1,hello
High,client2,world
Normal,client1,hello
High,client2,world
Normal,client1,hello
High,client2,world
Normal,client1,hello
High,client2,world
Normal,client1,hello
High,client2,world
Normal,client1,hello
High,client2,world
Normal,client1,hello
High,client2,world
Normal,client1,hello
High,client2,world
Normal,client1,hello
High,client2,world
Normal,client1,hello
High,client2,world
Normal,client1,hello
High,client2,world
Normal,client1,hello
High,client2,world
Normal,client1,hello
High,client2,world
Normal,client1,hello
High,client2,world
Normal,client1,hello
High,client2,world
Normal,client1,hello
High,client2,world
Normal,client1,hello
High,client2,world
Normal,client1,hello
High,client2,world
Normal,client1,hello
High,client2,world
Normal,client1,hello
High,client2,world
Normal,client1,hello
High,client2,world
Normal,client1,hello
High,client2,world
Normal,client1,hello
High,client2,world
Normal,client1,hello
High,client2,world
Normal,client1,hello
High,client2,world
Normal,client1,hello
High,client2,world
Normal,client1,hello
High,client2,world
Normal,client1,hello
High,client2,world
Normal,client1,hello
High,client2,world
Normal,client1,hello
High,client2,world
Normal,client1,hello
High,client2,world
Normal,client1,hello
High,client2,world
Normal,client1,hello
High,client2,world
Normal,client1,hello
High,client2,world
Normal,client1,hello
High,client2,world
Normal,client1,hello
High,client2,world
Normal,client1,hello
High,client2,world
Normal,client1,hello
High,client2,world
Normal,client1,hello
High,client2,world
Normal,client1,hello
High,client2,world
Normal,client1,hello
High,client2,world
Normal,client1,hello
High,client2,world
Normal,client1,hello
High,client2,world
Normal,client1,hello
High,client2,world
Normal,client1,hello
High,client2,world
Normal,client1,hello
High,client2,world
Normal,client1,hello
High,client2,world
Normal,client1,hello
High,client2,world
Normal,client1,hello
High,client2,world
Normal,client1,hello
High,client2,world
Normal,client1,hello
High,client2,world
Normal,client1,hello
High,client2,world
Normal,client1,hello
High,client2,world
Normal,client1,hello
High,client2,world
Normal,client1,hello
High,client2,world
Normal,client1,hello
High,client2,world
Normal,client1,hello
High,client2,world
Normal,client1,hello
High,client2,world
Normal,client1,hello
High,client2,world
Normal,client1,hello
High,client2,world
Normal,client1,hello
High,client2,world
Normal,client1,hello
High,client2,world
Normal,client1,hello
High,client2,world
Normal,client1,hello
High,client2,world
Normal,client1,hello
High,client2,world
Normal,client1,hello
High,client2,world
Normal,client1,hello
High,client2,world
Normal,client1,hello
High,client2,world
Normal,client1,hello
High,client2,world
Normal,client1,hello
High,client2,world
Normal,client1,hello
High,client2,world
Normal,client1,hello
High,client2,world
Normal,client1,hello
High,client2,world
Normal,client1,hello
High,client2,world
Normal,client1,hello
High,client2,world
Normal,client1,hello
High,client2,world
Normal,client1,hello
High,client2,world
Normal,client1,hello
High,client2,world
Normal,client1,hello
High,client2,world
Normal,client1,hello
High,client2,world
Normal,client1,hello
High,client2,world
Normal,client1,hello
High,client2,world
Normal,client1,hello
High,client2,world
Normal,client1,hello
High,client2,world
Normal,client1,hello
High,client2,world
Normal,client1,hello
High,client2,world
Normal,client1,hello
High,client2,world
Normal,client1,hello
High,client2,world
Normal,client1,hello
High,client2,world
Normal,client1,hello
High,client2,world
Normal,client1,hello
High,client2,world
Normal,client1,hello
High,client2,world
Normal,client1,hello
High,client2,world
Normal,client1,hello
High,client2,world
Normal,client1,hello
High,client2,world
Normal,client1,hello
High,client2,world
Normal,client1,hello
High,client2,world
Normal,client1,hello
High,client2,world
Normal,client1,hello
High,client2,world
High,client2,world
Normal,client1,hello
High,client2,world
Normal,client1,hello
High,client2,world
Normal,client1,hello
High,client2,world
Normal,client1,hello
High,client2,world
Normal,client1,hello
High,client2,world
Normal,client1,hello
High,client2,world
Normal,client1,hello
High,client2,world
Normal,client1,hello
High,client2,world
High,client2,world
High,client2,world
High,client2,world
High,client2,world
High,client2,world
High,client2,world
High,client2,world
High,client2,world
